-------------------------------------------------------------------------------
Test set: alluxio.underfs.swift.SwiftUnderFileSystemFactoryTest
-------------------------------------------------------------------------------
Tests run: 1, Failures: 0, Errors: 0, Skipped: 0, Time elapsed: 0.25 sec - in alluxio.underfs.swift.SwiftUnderFileSystemFactoryTest
