/Users/giovanni/Documents/research/correct_behavior/repositories/alluxio/core/server/master/src/test/java/alluxio/master/file/meta/TtlBucketTest.java
/Users/giovanni/Documents/research/correct_behavior/repositories/alluxio/core/server/master/src/test/java/alluxio/master/file/StartupConsistencyCheckTest.java
/Users/giovanni/Documents/research/correct_behavior/repositories/alluxio/core/server/master/src/test/java/alluxio/master/block/BlockMasterTest.java
/Users/giovanni/Documents/research/correct_behavior/repositories/alluxio/core/server/master/src/test/java/alluxio/master/file/options/CreateFileOptionsTest.java
/Users/giovanni/Documents/research/correct_behavior/repositories/alluxio/core/server/master/src/test/java/alluxio/master/lineage/recompute/RecomputePlannerTest.java
/Users/giovanni/Documents/research/correct_behavior/repositories/alluxio/core/server/master/src/test/java/alluxio/master/lineage/LineageMasterTest.java
/Users/giovanni/Documents/research/correct_behavior/repositories/alluxio/core/server/master/src/test/java/alluxio/master/file/meta/options/MountInfoTest.java
/Users/giovanni/Documents/research/correct_behavior/repositories/alluxio/core/server/master/src/test/java/alluxio/master/lineage/recompute/TestRecomputeExecutor.java
/Users/giovanni/Documents/research/correct_behavior/repositories/alluxio/core/server/master/src/test/java/alluxio/master/file/FileSystemMasterTest.java
/Users/giovanni/Documents/research/correct_behavior/repositories/alluxio/core/server/master/src/test/java/alluxio/master/journal/options/JournalReaderOptionsTest.java
/Users/giovanni/Documents/research/correct_behavior/repositories/alluxio/core/server/master/src/test/java/alluxio/master/file/options/LoadMetadataOptionsTest.java
/Users/giovanni/Documents/research/correct_behavior/repositories/alluxio/core/server/master/src/test/java/alluxio/master/file/options/CreateDirectoryOptionsTest.java
/Users/giovanni/Documents/research/correct_behavior/repositories/alluxio/core/server/master/src/test/java/alluxio/master/file/PermissionCheckerTest.java
/Users/giovanni/Documents/research/correct_behavior/repositories/alluxio/core/server/master/src/test/java/alluxio/master/file/options/MountOptionsTest.java
/Users/giovanni/Documents/research/correct_behavior/repositories/alluxio/core/server/master/src/test/java/alluxio/master/block/meta/MasterWorkerInfoTest.java
/Users/giovanni/Documents/research/correct_behavior/repositories/alluxio/core/server/master/src/test/java/alluxio/master/block/meta/BlockContainerIdGeneratorTest.java
/Users/giovanni/Documents/research/correct_behavior/repositories/alluxio/core/server/master/src/test/java/alluxio/master/file/meta/TtlIntervalRule.java
/Users/giovanni/Documents/research/correct_behavior/repositories/alluxio/core/server/master/src/test/java/alluxio/master/file/PermissionCheckTest.java
/Users/giovanni/Documents/research/correct_behavior/repositories/alluxio/core/server/master/src/test/java/alluxio/master/AlluxioMasterRestServiceHandlerTest.java
/Users/giovanni/Documents/research/correct_behavior/repositories/alluxio/core/server/master/src/test/java/alluxio/master/file/options/SetAttributeOptionsTest.java
/Users/giovanni/Documents/research/correct_behavior/repositories/alluxio/core/server/master/src/test/java/alluxio/master/file/options/ListStatusOptionsTest.java
/Users/giovanni/Documents/research/correct_behavior/repositories/alluxio/core/server/master/src/test/java/alluxio/master/file/options/CompleteFileOptionsTest.java
/Users/giovanni/Documents/research/correct_behavior/repositories/alluxio/core/server/master/src/test/java/alluxio/master/file/meta/UfsAbsentPathCacheTest.java
/Users/giovanni/Documents/research/correct_behavior/repositories/alluxio/core/server/master/src/test/java/alluxio/master/lineage/meta/LineageIdGeneratorTest.java
/Users/giovanni/Documents/research/correct_behavior/repositories/alluxio/core/server/master/src/test/java/alluxio/master/file/meta/AbstractInodeTest.java
/Users/giovanni/Documents/research/correct_behavior/repositories/alluxio/core/server/master/src/test/java/alluxio/master/file/meta/AsyncUfsAbsentPathCacheTest.java
/Users/giovanni/Documents/research/correct_behavior/repositories/alluxio/core/server/master/src/test/java/alluxio/master/journal/options/JournalWriterOptionsTest.java
/Users/giovanni/Documents/research/correct_behavior/repositories/alluxio/core/server/master/src/test/java/alluxio/master/lineage/meta/LineageStoreTest.java
/Users/giovanni/Documents/research/correct_behavior/repositories/alluxio/core/server/master/src/test/java/alluxio/master/file/meta/InodeFileTest.java
/Users/giovanni/Documents/research/correct_behavior/repositories/alluxio/core/server/master/src/test/java/alluxio/master/file/meta/TtlBucketListTest.java
/Users/giovanni/Documents/research/correct_behavior/repositories/alluxio/core/server/master/src/test/java/alluxio/master/file/meta/MountTableTest.java
/Users/giovanni/Documents/research/correct_behavior/repositories/alluxio/core/server/master/src/test/java/alluxio/master/file/meta/InodeTreeTest.java
/Users/giovanni/Documents/research/correct_behavior/repositories/alluxio/core/server/master/src/test/java/alluxio/master/file/options/DeleteOptionsTest.java
/Users/giovanni/Documents/research/correct_behavior/repositories/alluxio/core/server/master/src/test/java/alluxio/master/file/options/RenameOptionsTest.java
/Users/giovanni/Documents/research/correct_behavior/repositories/alluxio/core/server/master/src/test/java/alluxio/master/lineage/checkpoint/CheckpointLatestPlannerTest.java
/Users/giovanni/Documents/research/correct_behavior/repositories/alluxio/core/server/master/src/test/java/alluxio/master/file/meta/InodeDirectoryTest.java
/Users/giovanni/Documents/research/correct_behavior/repositories/alluxio/core/server/master/src/test/java/alluxio/master/block/meta/MasterBlockInfoTest.java
/Users/giovanni/Documents/research/correct_behavior/repositories/alluxio/core/server/master/src/test/java/alluxio/master/file/async/DefaultAsyncPersistHandlerTest.java
