-------------------------------------------------------------------------------
Test set: alluxio.master.file.meta.options.MountInfoTest
-------------------------------------------------------------------------------
Tests run: 1, Failures: 0, Errors: 0, Skipped: 0, Time elapsed: 0.097 sec - in alluxio.master.file.meta.options.MountInfoTest
