-------------------------------------------------------------------------------
Test set: alluxio.master.journal.options.JournalReaderOptionsTest
-------------------------------------------------------------------------------
Tests run: 2, Failures: 0, Errors: 0, Skipped: 0, Time elapsed: 0.135 sec - in alluxio.master.journal.options.JournalReaderOptionsTest
