-------------------------------------------------------------------------------
Test set: alluxio.master.file.options.DeleteOptionsTest
-------------------------------------------------------------------------------
Tests run: 3, Failures: 0, Errors: 0, Skipped: 0, Time elapsed: 0.163 sec - in alluxio.master.file.options.DeleteOptionsTest
