-------------------------------------------------------------------------------
Test set: alluxio.master.file.meta.AsyncUfsAbsentPathCacheTest
-------------------------------------------------------------------------------
Tests run: 6, Failures: 0, Errors: 0, Skipped: 0, Time elapsed: 0.682 sec - in alluxio.master.file.meta.AsyncUfsAbsentPathCacheTest
