-------------------------------------------------------------------------------
Test set: alluxio.master.file.options.SetAttributeOptionsTest
-------------------------------------------------------------------------------
Tests run: 5, Failures: 0, Errors: 0, Skipped: 0, Time elapsed: 1.85 sec - in alluxio.master.file.options.SetAttributeOptionsTest
