-------------------------------------------------------------------------------
Test set: alluxio.master.file.options.RenameOptionsTest
-------------------------------------------------------------------------------
Tests run: 2, Failures: 0, Errors: 0, Skipped: 0, Time elapsed: 0.174 sec - in alluxio.master.file.options.RenameOptionsTest
