-------------------------------------------------------------------------------
Test set: alluxio.master.file.meta.InodeTreeTest
-------------------------------------------------------------------------------
Tests run: 29, Failures: 0, Errors: 0, Skipped: 0, Time elapsed: 1.079 sec - in alluxio.master.file.meta.InodeTreeTest
