-------------------------------------------------------------------------------
Test set: alluxio.master.file.options.CreateDirectoryOptionsTest
-------------------------------------------------------------------------------
Tests run: 3, Failures: 0, Errors: 0, Skipped: 0, Time elapsed: 1.532 sec - in alluxio.master.file.options.CreateDirectoryOptionsTest
