-------------------------------------------------------------------------------
Test set: alluxio.master.AlluxioMasterRestServiceHandlerTest
-------------------------------------------------------------------------------
Tests run: 14, Failures: 0, Errors: 0, Skipped: 0, Time elapsed: 0.936 sec - in alluxio.master.AlluxioMasterRestServiceHandlerTest
