<?xml version="1.0" encoding="UTF-8"?>
<testsuite xmlns:xsi="http://www.w3.org/2001/XMLSchema-instance" xsi:schemaLocation="https://maven.apache.org/surefire/maven-surefire-plugin/xsd/surefire-test-report.xsd" name="alluxio.master.file.FileSystemMasterTest" time="3.376" tests="75" errors="0" skipped="0" failures="0">
  <properties>
    <property name="java.runtime.name" value="Java(TM) SE Runtime Environment"/>
    <property name="sun.boot.library.path" value="/Library/Java/JavaVirtualMachines/jdk1.8.0_74.jdk/Contents/Home/jre/lib"/>
    <property name="java.vm.version" value="25.74-b02"/>
    <property name="user.country.format" value="AT"/>
    <property name="gopherProxySet" value="false"/>
    <property name="java.vm.vendor" value="Oracle Corporation"/>
    <property name="maven.multiModuleProjectDirectory" value="/Users/giovanni/repository/evaluation/other_projects/alluxio"/>
    <property name="java.vendor.url" value="http://java.oracle.com/"/>
    <property name="path.separator" value=":"/>
    <property name="guice.disable.misplaced.annotation.check" value="true"/>
    <property name="java.vm.name" value="Java HotSpot(TM) 64-Bit Server VM"/>
    <property name="file.encoding.pkg" value="sun.io"/>
    <property name="user.country" value="US"/>
    <property name="sun.java.launcher" value="SUN_STANDARD"/>
    <property name="sun.os.patch.level" value="unknown"/>
    <property name="java.vm.specification.name" value="Java Virtual Machine Specification"/>
    <property name="user.dir" value="/Users/giovanni/Documents/research/correct_behavior/repositories/alluxio"/>
    <property name="java.runtime.version" value="1.8.0_74-b02"/>
    <property name="java.awt.graphicsenv" value="sun.awt.CGraphicsEnvironment"/>
    <property name="java.endorsed.dirs" value="/Library/Java/JavaVirtualMachines/jdk1.8.0_74.jdk/Contents/Home/jre/lib/endorsed"/>
    <property name="os.arch" value="x86_64"/>
    <property name="java.io.tmpdir" value="/var/folders/fy/0rt5_dss2_794rf7km5pc2psvr338n/T/"/>
    <property name="line.separator" value="&#10;"/>
    <property name="java.vm.specification.vendor" value="Oracle Corporation"/>
    <property name="os.name" value="Mac OS X"/>
    <property name="classworlds.conf" value="/usr/local/Cellar/maven/3.3.9/libexec/bin/m2.conf"/>
    <property name="sun.jnu.encoding" value="UTF-8"/>
    <property name="java.library.path" value="/Users/giovanni/Library/Java/Extensions:/Library/Java/Extensions:/Network/Library/Java/Extensions:/System/Library/Java/Extensions:/usr/lib/java:."/>
    <property name="java.specification.name" value="Java Platform API Specification"/>
    <property name="java.class.version" value="52.0"/>
    <property name="logstash-gelf.skipHostnameResolution" value="true"/>
    <property name="sun.management.compiler" value="HotSpot 64-Bit Tiered Compilers"/>
    <property name="os.version" value="10.13.6"/>
    <property name="http.nonProxyHosts" value="local|*.local|169.254/16|*.169.254/16"/>
    <property name="user.home" value="/Users/giovanni"/>
    <property name="user.timezone" value="Europe/Vienna"/>
    <property name="java.awt.printerjob" value="sun.lwawt.macosx.CPrinterJob"/>
    <property name="java.specification.version" value="1.8"/>
    <property name="file.encoding" value="UTF-8"/>
    <property name="user.name" value="giovanni"/>
    <property name="java.class.path" value="/usr/local/Cellar/maven/3.3.9/libexec/boot/plexus-classworlds-2.5.2.jar"/>
    <property name="java.vm.specification.version" value="1.8"/>
    <property name="sun.arch.data.model" value="64"/>
    <property name="java.home" value="/Library/Java/JavaVirtualMachines/jdk1.8.0_74.jdk/Contents/Home/jre"/>
    <property name="sun.java.command" value="org.codehaus.plexus.classworlds.launcher.Launcher clean test -fae"/>
    <property name="java.specification.vendor" value="Oracle Corporation"/>
    <property name="user.language" value="en"/>
    <property name="awt.toolkit" value="sun.lwawt.macosx.LWCToolkit"/>
    <property name="java.vm.info" value="mixed mode"/>
    <property name="java.version" value="1.8.0_74"/>
    <property name="java.ext.dirs" value="/Users/giovanni/Library/Java/Extensions:/Library/Java/JavaVirtualMachines/jdk1.8.0_74.jdk/Contents/Home/jre/lib/ext:/Library/Java/Extensions:/Network/Library/Java/Extensions:/System/Library/Java/Extensions:/usr/lib/java"/>
    <property name="sun.boot.class.path" value="/Library/Java/JavaVirtualMachines/jdk1.8.0_74.jdk/Contents/Home/jre/lib/resources.jar:/Library/Java/JavaVirtualMachines/jdk1.8.0_74.jdk/Contents/Home/jre/lib/rt.jar:/Library/Java/JavaVirtualMachines/jdk1.8.0_74.jdk/Contents/Home/jre/lib/sunrsasign.jar:/Library/Java/JavaVirtualMachines/jdk1.8.0_74.jdk/Contents/Home/jre/lib/jsse.jar:/Library/Java/JavaVirtualMachines/jdk1.8.0_74.jdk/Contents/Home/jre/lib/jce.jar:/Library/Java/JavaVirtualMachines/jdk1.8.0_74.jdk/Contents/Home/jre/lib/charsets.jar:/Library/Java/JavaVirtualMachines/jdk1.8.0_74.jdk/Contents/Home/jre/lib/jfr.jar:/Library/Java/JavaVirtualMachines/jdk1.8.0_74.jdk/Contents/Home/jre/classes"/>
    <property name="java.vendor" value="Oracle Corporation"/>
    <property name="maven.home" value="/usr/local/Cellar/maven/3.3.9/libexec"/>
    <property name="file.separator" value="/"/>
    <property name="java.vendor.url.bug" value="http://bugreport.sun.com/bugreport/"/>
    <property name="sun.cpu.endian" value="little"/>
    <property name="sun.io.unicode.encoding" value="UnicodeBig"/>
    <property name="socksNonProxyHosts" value="local|*.local|169.254/16|*.169.254/16"/>
    <property name="ftp.nonProxyHosts" value="local|*.local|169.254/16|*.169.254/16"/>
    <property name="sun.cpu.isalist" value=""/>
  </properties>
  <testcase name="mountPrefixUfsDir" classname="alluxio.master.file.FileSystemMasterTest" time="0.386"/>
  <testcase name="getPersistenceState" classname="alluxio.master.file.FileSystemMasterTest" time="0.031"/>
  <testcase name="ttlDirectoryFree" classname="alluxio.master.file.FileSystemMasterTest" time="0.053"/>
  <testcase name="ttlFileFree" classname="alluxio.master.file.FileSystemMasterTest" time="0.028"/>
  <testcase name="freeDirWithPinnedFileAndForced" classname="alluxio.master.file.FileSystemMasterTest" time="0.038"/>
  <testcase name="mountUnmount" classname="alluxio.master.file.FileSystemMasterTest" time="0.04"/>
  <testcase name="ttlDirectoryDeleteReplay" classname="alluxio.master.file.FileSystemMasterTest" time="0.054"/>
  <testcase name="getFileIdWithLoadMetadata" classname="alluxio.master.file.FileSystemMasterTest" time="0.048"/>
  <testcase name="setNoTtlForFileWithTtl" classname="alluxio.master.file.FileSystemMasterTest" time="0.029"/>
  <testcase name="deleteUnsyncedPersistedDirectoryWithCheck" classname="alluxio.master.file.FileSystemMasterTest" time="0.067"/>
  <testcase name="listStatusWithLoadMetadataAlways" classname="alluxio.master.file.FileSystemMasterTest" time="0.041"/>
  <testcase name="freeDirNonRecursive" classname="alluxio.master.file.FileSystemMasterTest" time="0.039"/>
  <testcase name="setLargerTtlForDirectoryWithTtl" classname="alluxio.master.file.FileSystemMasterTest" time="0.029"/>
  <testcase name="renameToNonExistentParent" classname="alluxio.master.file.FileSystemMasterTest" time="0.027"/>
  <testcase name="setSmallerTtlForFileWithTtl" classname="alluxio.master.file.FileSystemMasterTest" time="0.032"/>
  <testcase name="deleteNonemptyDirectory" classname="alluxio.master.file.FileSystemMasterTest" time="0.031"/>
  <testcase name="getNewBlockIdForFile" classname="alluxio.master.file.FileSystemMasterTest" time="0.027"/>
  <testcase name="freeNonPersistedFile" classname="alluxio.master.file.FileSystemMasterTest" time="0.027"/>
  <testcase name="mountShadowDir" classname="alluxio.master.file.FileSystemMasterTest" time="0.03"/>
  <testcase name="rename" classname="alluxio.master.file.FileSystemMasterTest" time="0.032"/>
  <testcase name="unmountRootWithException" classname="alluxio.master.file.FileSystemMasterTest" time="0.029"/>
  <testcase name="getFileBlockInfoList" classname="alluxio.master.file.FileSystemMasterTest" time="0.029"/>
  <testcase name="deleteUnsyncedPersistedDirectoryWithoutCheck" classname="alluxio.master.file.FileSystemMasterTest" time="0.044"/>
  <testcase name="ttlDirectoryDelete" classname="alluxio.master.file.FileSystemMasterTest" time="0.027"/>
  <testcase name="deleteSyncedPersistedDirectoryWithoutCheck" classname="alluxio.master.file.FileSystemMasterTest" time="0.041"/>
  <testcase name="freeDir" classname="alluxio.master.file.FileSystemMasterTest" time="0.04"/>
  <testcase name="freeDirWithPinnedFileAndNotForced" classname="alluxio.master.file.FileSystemMasterTest" time="0.034"/>
  <testcase name="permission" classname="alluxio.master.file.FileSystemMasterTest" time="0.026"/>
  <testcase name="isFullyInMemory" classname="alluxio.master.file.FileSystemMasterTest" time="0.03"/>
  <testcase name="listStatusWithLoadMetadataNever" classname="alluxio.master.file.FileSystemMasterTest" time="0.035"/>
  <testcase name="deleteSyncedPersistedMultilevelDirectoryWithCheck" classname="alluxio.master.file.FileSystemMasterTest" time="0.107"/>
  <testcase name="deleteDir" classname="alluxio.master.file.FileSystemMasterTest" time="0.038"/>
  <testcase name="setNoTtlForDirectoryWithTtl" classname="alluxio.master.file.FileSystemMasterTest" time="0.025"/>
  <testcase name="unmount" classname="alluxio.master.file.FileSystemMasterTest" time="0.033"/>
  <testcase name="renameToSubpath" classname="alluxio.master.file.FileSystemMasterTest" time="0.025"/>
  <testcase name="deleteSyncedPersistedDirectoryWithCheck" classname="alluxio.master.file.FileSystemMasterTest" time="0.045"/>
  <testcase name="getPath" classname="alluxio.master.file.FileSystemMasterTest" time="0.025"/>
  <testcase name="setLargerTtlForFileWithTtl" classname="alluxio.master.file.FileSystemMasterTest" time="0.025"/>
  <testcase name="setSmallerTtlForDirectoryWithTtl" classname="alluxio.master.file.FileSystemMasterTest" time="0.025"/>
  <testcase name="free" classname="alluxio.master.file.FileSystemMasterTest" time="0.035"/>
  <testcase name="stop" classname="alluxio.master.file.FileSystemMasterTest" time="0.025"/>
  <testcase name="freePinnedFileWithoutForce" classname="alluxio.master.file.FileSystemMasterTest" time="0.035"/>
  <testcase name="mountExistingDir" classname="alluxio.master.file.FileSystemMasterTest" time="0.026"/>
  <testcase name="deleteSyncedPersistedMultilevelDirectoryWithoutCheck" classname="alluxio.master.file.FileSystemMasterTest" time="0.084"/>
  <testcase name="mount" classname="alluxio.master.file.FileSystemMasterTest" time="0.027"/>
  <testcase name="listStatusWithLoadMetadataOnce" classname="alluxio.master.file.FileSystemMasterTest" time="0.037"/>
  <testcase name="ttlFileDeleteReplay" classname="alluxio.master.file.FileSystemMasterTest" time="0.042"/>
  <testcase name="deleteUnsyncedPersistedMultilevelDirectoryWithCheck" classname="alluxio.master.file.FileSystemMasterTest" time="0.115"/>
  <testcase name="listStatus" classname="alluxio.master.file.FileSystemMasterTest" time="0.039"/>
  <testcase name="getFileId" classname="alluxio.master.file.FileSystemMasterTest" time="0.027"/>
  <testcase name="ttlDirectoryFreeReplay" classname="alluxio.master.file.FileSystemMasterTest" time="0.044"/>
  <testcase name="getUfsInfo" classname="alluxio.master.file.FileSystemMasterTest" time="0.031"/>
  <testcase name="renameUnderNonexistingDir" classname="alluxio.master.file.FileSystemMasterTest" time="0.032"/>
  <testcase name="freeDirWithNonPersistedFile" classname="alluxio.master.file.FileSystemMasterTest" time="0.029"/>
  <testcase name="ttlFileDelete" classname="alluxio.master.file.FileSystemMasterTest" time="0.028"/>
  <testcase name="unmountNonExistingPathWithException" classname="alluxio.master.file.FileSystemMasterTest" time="0.025"/>
  <testcase name="workerHeartbeat" classname="alluxio.master.file.FileSystemMasterTest" time="0.036"/>
  <testcase name="loadMetadata" classname="alluxio.master.file.FileSystemMasterTest" time="0.041"/>
  <testcase name="freePinnedFileWithForce" classname="alluxio.master.file.FileSystemMasterTest" time="0.035"/>
  <testcase name="deleteUnsyncedPersistedMultilevelDirectoryWithoutCheck" classname="alluxio.master.file.FileSystemMasterTest" time="0.08"/>
  <testcase name="getUfsInfoNotExist" classname="alluxio.master.file.FileSystemMasterTest" time="0.031"/>
  <testcase name="mountSuffixUfsDir" classname="alluxio.master.file.FileSystemMasterTest" time="0.037"/>
  <testcase name="lostFilesDetection" classname="alluxio.master.file.FileSystemMasterTest" time="0.029"/>
  <testcase name="setTtlForDirectoryWithNoTtl" classname="alluxio.master.file.FileSystemMasterTest" time="0.027"/>
  <testcase name="getFileInfo" classname="alluxio.master.file.FileSystemMasterTest" time="0.027"/>
  <testcase name="listStatusWithLoadMetadataNonPersistedDir" classname="alluxio.master.file.FileSystemMasterTest" time="0.037"/>
  <testcase name="setAttribute" classname="alluxio.master.file.FileSystemMasterTest" time="0.029"/>
  <testcase name="setTtlForFileWithNoTtl" classname="alluxio.master.file.FileSystemMasterTest" time="0.027"/>
  <testcase name="deleteFile" classname="alluxio.master.file.FileSystemMasterTest" time="0.04"/>
  <testcase name="mountNonExistingParentDir" classname="alluxio.master.file.FileSystemMasterTest" time="0.03"/>
  <testcase name="loadRoot" classname="alluxio.master.file.FileSystemMasterTest" time="0.026"/>
  <testcase name="testLoadMetadata" classname="alluxio.master.file.FileSystemMasterTest" time="0.036"/>
  <testcase name="unmountNonMountPointWithException" classname="alluxio.master.file.FileSystemMasterTest" time="0.033"/>
  <testcase name="getFileInfoWithLoadMetadata" classname="alluxio.master.file.FileSystemMasterTest" time="0.033"/>
  <testcase name="ttlFileFreeReplay" classname="alluxio.master.file.FileSystemMasterTest" time="0.038"/>
</testsuite>