/Users/giovanni/Documents/research/correct_behavior/repositories/alluxio/core/server/master/src/main/java/alluxio/web/WebInterfaceWorkersServlet.java
/Users/giovanni/Documents/research/correct_behavior/repositories/alluxio/core/server/master/src/main/java/alluxio/master/file/StartupConsistencyCheck.java
/Users/giovanni/Documents/research/correct_behavior/repositories/alluxio/core/server/master/src/main/java/alluxio/web/WebInterfaceMasterMetricsServlet.java
/Users/giovanni/Documents/research/correct_behavior/repositories/alluxio/core/server/master/src/main/java/alluxio/master/file/options/MountOptions.java
/Users/giovanni/Documents/research/correct_behavior/repositories/alluxio/core/server/master/src/main/java/alluxio/master/file/meta/TempInodePathForDescendant.java
/Users/giovanni/Documents/research/correct_behavior/repositories/alluxio/core/server/master/src/main/java/alluxio/master/file/LostFileDetector.java
/Users/giovanni/Documents/research/correct_behavior/repositories/alluxio/core/server/master/src/main/java/alluxio/master/file/options/LoadMetadataOptions.java
/Users/giovanni/Documents/research/correct_behavior/repositories/alluxio/core/server/master/src/main/java/alluxio/master/file/InodeTtlChecker.java
/Users/giovanni/Documents/research/correct_behavior/repositories/alluxio/core/server/master/src/main/java/alluxio/master/file/meta/TtlBucket.java
/Users/giovanni/Documents/research/correct_behavior/repositories/alluxio/core/server/master/src/main/java/alluxio/master/file/meta/InodeTree.java
/Users/giovanni/Documents/research/correct_behavior/repositories/alluxio/core/server/master/src/main/java/alluxio/master/file/options/CreateDirectoryOptions.java
/Users/giovanni/Documents/research/correct_behavior/repositories/alluxio/core/server/master/src/main/java/alluxio/master/file/meta/UfsAbsentPathCache.java
/Users/giovanni/Documents/research/correct_behavior/repositories/alluxio/core/server/master/src/main/java/alluxio/web/MasterWebServer.java
/Users/giovanni/Documents/research/correct_behavior/repositories/alluxio/core/server/master/src/main/java/alluxio/master/file/meta/FileSystemMasterView.java
/Users/giovanni/Documents/research/correct_behavior/repositories/alluxio/core/server/master/src/main/java/alluxio/master/file/meta/MountTable.java
/Users/giovanni/Documents/research/correct_behavior/repositories/alluxio/core/server/master/src/main/java/alluxio/master/file/FileSystemMaster.java
/Users/giovanni/Documents/research/correct_behavior/repositories/alluxio/core/server/master/src/main/java/alluxio/master/file/PermissionChecker.java
/Users/giovanni/Documents/research/correct_behavior/repositories/alluxio/core/server/master/src/main/java/alluxio/master/lineage/LineageMaster.java
/Users/giovanni/Documents/research/correct_behavior/repositories/alluxio/core/server/master/src/main/java/alluxio/master/block/BlockMaster.java
/Users/giovanni/Documents/research/correct_behavior/repositories/alluxio/core/server/master/src/main/java/alluxio/master/file/options/GetStatusOptions.java
/Users/giovanni/Documents/research/correct_behavior/repositories/alluxio/core/server/master/src/main/java/alluxio/master/lineage/checkpoint/CheckpointPlan.java
/Users/giovanni/Documents/research/correct_behavior/repositories/alluxio/core/server/master/src/main/java/alluxio/master/lineage/DefaultLineageMaster.java
/Users/giovanni/Documents/research/correct_behavior/repositories/alluxio/core/server/master/src/main/java/alluxio/master/file/options/ListStatusOptions.java
/Users/giovanni/Documents/research/correct_behavior/repositories/alluxio/core/server/master/src/main/java/alluxio/master/ProtobufUtils.java
/Users/giovanni/Documents/research/correct_behavior/repositories/alluxio/core/server/master/src/main/java/alluxio/web/WebInterfaceDependencyServlet.java
/Users/giovanni/Documents/research/correct_behavior/repositories/alluxio/core/server/master/src/main/java/alluxio/master/file/meta/LockedInodePath.java
/Users/giovanni/Documents/research/correct_behavior/repositories/alluxio/core/server/master/src/main/java/alluxio/master/file/FileSystemMasterClientRestServiceHandler.java
/Users/giovanni/Documents/research/correct_behavior/repositories/alluxio/core/server/master/src/main/java/alluxio/master/file/FileSystemMasterFactory.java
/Users/giovanni/Documents/research/correct_behavior/repositories/alluxio/core/server/master/src/main/java/alluxio/master/block/BlockMasterClientServiceHandler.java
/Users/giovanni/Documents/research/correct_behavior/repositories/alluxio/core/server/master/src/main/java/alluxio/master/file/meta/InodeFile.java
/Users/giovanni/Documents/research/correct_behavior/repositories/alluxio/core/server/master/src/main/java/alluxio/master/file/meta/InodeLockList.java
/Users/giovanni/Documents/research/correct_behavior/repositories/alluxio/core/server/master/src/main/java/alluxio/master/file/UfsSyncChecker.java
/Users/giovanni/Documents/research/correct_behavior/repositories/alluxio/core/server/master/src/main/java/alluxio/master/lineage/checkpoint/CheckpointSchedulingExecutor.java
/Users/giovanni/Documents/research/correct_behavior/repositories/alluxio/core/server/master/src/main/java/alluxio/master/block/meta/MasterWorkerInfo.java
/Users/giovanni/Documents/research/correct_behavior/repositories/alluxio/core/server/master/src/main/java/alluxio/master/block/meta/MasterBlockLocation.java
/Users/giovanni/Documents/research/correct_behavior/repositories/alluxio/core/server/master/src/main/java/alluxio/master/lineage/meta/LineageStateUtils.java
/Users/giovanni/Documents/research/correct_behavior/repositories/alluxio/core/server/master/src/main/java/alluxio/master/block/ContainerIdGenerable.java
/Users/giovanni/Documents/research/correct_behavior/repositories/alluxio/core/server/master/src/main/java/alluxio/master/file/meta/options/MountInfo.java
/Users/giovanni/Documents/research/correct_behavior/repositories/alluxio/core/server/master/src/main/java/alluxio/master/file/options/RenameOptions.java
/Users/giovanni/Documents/research/correct_behavior/repositories/alluxio/core/server/master/src/main/java/alluxio/master/lineage/meta/LineageStore.java
/Users/giovanni/Documents/research/correct_behavior/repositories/alluxio/core/server/master/src/main/java/alluxio/master/block/meta/MasterBlockInfo.java
/Users/giovanni/Documents/research/correct_behavior/repositories/alluxio/core/server/master/src/main/java/alluxio/master/file/meta/TempInodePathForChild.java
/Users/giovanni/Documents/research/correct_behavior/repositories/alluxio/core/server/master/src/main/java/alluxio/master/lineage/checkpoint/CheckpointLatestPlanner.java
/Users/giovanni/Documents/research/correct_behavior/repositories/alluxio/core/server/master/src/main/java/alluxio/master/block/BlockMasterWorkerServiceHandler.java
/Users/giovanni/Documents/research/correct_behavior/repositories/alluxio/core/server/master/src/main/java/alluxio/master/AlluxioMasterRestServiceHandler.java
/Users/giovanni/Documents/research/correct_behavior/repositories/alluxio/core/server/master/src/main/java/alluxio/underfs/MasterUfsManager.java
/Users/giovanni/Documents/research/correct_behavior/repositories/alluxio/core/server/master/src/main/java/alluxio/master/block/BlockMasterFactory.java
/Users/giovanni/Documents/research/correct_behavior/repositories/alluxio/core/server/master/src/main/java/alluxio/master/lineage/recompute/RecomputeExecutor.java
/Users/giovanni/Documents/research/correct_behavior/repositories/alluxio/core/server/master/src/main/java/alluxio/web/WebInterfaceBrowseServlet.java
/Users/giovanni/Documents/research/correct_behavior/repositories/alluxio/core/server/master/src/main/java/alluxio/master/file/options/CreateFileOptions.java
/Users/giovanni/Documents/research/correct_behavior/repositories/alluxio/core/server/master/src/main/java/alluxio/master/lineage/meta/LineageIdGenerator.java
/Users/giovanni/Documents/research/correct_behavior/repositories/alluxio/core/server/master/src/main/java/alluxio/master/lineage/LineageMasterFactory.java
/Users/giovanni/Documents/research/correct_behavior/repositories/alluxio/core/server/master/src/main/java/alluxio/master/file/FileSystemMasterWorkerServiceHandler.java
/Users/giovanni/Documents/research/correct_behavior/repositories/alluxio/core/server/master/src/main/java/alluxio/master/AlluxioMaster.java
/Users/giovanni/Documents/research/correct_behavior/repositories/alluxio/core/server/master/src/main/java/alluxio/master/MetaMasterClientServiceHandler.java
/Users/giovanni/Documents/research/correct_behavior/repositories/alluxio/core/server/master/src/main/java/alluxio/master/file/meta/NoopUfsAbsentPathCache.java
/Users/giovanni/Documents/research/correct_behavior/repositories/alluxio/core/server/master/src/main/java/alluxio/master/file/meta/MutableLockedInodePath.java
/Users/giovanni/Documents/research/correct_behavior/repositories/alluxio/core/server/master/src/main/java/alluxio/master/lineage/meta/LineageStoreView.java
/Users/giovanni/Documents/research/correct_behavior/repositories/alluxio/core/server/master/src/main/java/alluxio/master/lineage/LineageMasterClientServiceHandler.java
/Users/giovanni/Documents/research/correct_behavior/repositories/alluxio/core/server/master/src/main/java/alluxio/web/WebInterfaceConfigurationServlet.java
/Users/giovanni/Documents/research/correct_behavior/repositories/alluxio/core/server/master/src/main/java/alluxio/master/file/meta/InodeDirectory.java
/Users/giovanni/Documents/research/correct_behavior/repositories/alluxio/core/server/master/src/main/java/alluxio/master/file/meta/InodeDirectoryIdGenerator.java
/Users/giovanni/Documents/research/correct_behavior/repositories/alluxio/core/server/master/src/main/java/alluxio/web/WebInterfaceMemoryServlet.java
/Users/giovanni/Documents/research/correct_behavior/repositories/alluxio/core/server/master/src/main/java/alluxio/master/file/options/SetAttributeOptions.java
/Users/giovanni/Documents/research/correct_behavior/repositories/alluxio/core/server/master/src/main/java/alluxio/master/FaultTolerantAlluxioMasterProcess.java
/Users/giovanni/Documents/research/correct_behavior/repositories/alluxio/core/server/master/src/main/java/alluxio/master/file/meta/TtlBucketList.java
/Users/giovanni/Documents/research/correct_behavior/repositories/alluxio/core/server/master/src/main/java/alluxio/master/lineage/LineageMasterClientRestServiceHandler.java
/Users/giovanni/Documents/research/correct_behavior/repositories/alluxio/core/server/master/src/main/java/alluxio/web/WebInterfaceGeneralServlet.java
/Users/giovanni/Documents/research/correct_behavior/repositories/alluxio/core/server/master/src/main/java/alluxio/master/file/FileSystemMasterClientServiceHandler.java
/Users/giovanni/Documents/research/correct_behavior/repositories/alluxio/core/server/master/src/main/java/alluxio/master/AlluxioMasterProcess.java
/Users/giovanni/Documents/research/correct_behavior/repositories/alluxio/core/server/master/src/main/java/alluxio/master/file/meta/AsyncUfsAbsentPathCache.java
/Users/giovanni/Documents/research/correct_behavior/repositories/alluxio/core/server/master/src/main/java/alluxio/master/file/options/DeleteOptions.java
/Users/giovanni/Documents/research/correct_behavior/repositories/alluxio/core/server/master/src/main/java/alluxio/master/block/BlockMasterClientRestServiceHandler.java
/Users/giovanni/Documents/research/correct_behavior/repositories/alluxio/core/server/master/src/main/java/alluxio/master/file/options/CreatePathOptions.java
/Users/giovanni/Documents/research/correct_behavior/repositories/alluxio/core/server/master/src/main/java/alluxio/master/lineage/meta/Lineage.java
/Users/giovanni/Documents/research/correct_behavior/repositories/alluxio/core/server/master/src/main/java/alluxio/master/file/options/CompleteFileOptions.java
/Users/giovanni/Documents/research/correct_behavior/repositories/alluxio/core/server/master/src/main/java/alluxio/master/lineage/checkpoint/CheckpointPlanner.java
/Users/giovanni/Documents/research/correct_behavior/repositories/alluxio/core/server/master/src/main/java/alluxio/master/file/options/CheckConsistencyOptions.java
/Users/giovanni/Documents/research/correct_behavior/repositories/alluxio/core/server/master/src/main/java/alluxio/master/file/meta/InodePathPair.java
/Users/giovanni/Documents/research/correct_behavior/repositories/alluxio/core/server/master/src/main/java/alluxio/master/MasterUtils.java
/Users/giovanni/Documents/research/correct_behavior/repositories/alluxio/core/server/master/src/main/java/alluxio/master/file/options/FreeOptions.java
/Users/giovanni/Documents/research/correct_behavior/repositories/alluxio/core/server/master/src/main/java/alluxio/master/file/async/AsyncPersistHandler.java
/Users/giovanni/Documents/research/correct_behavior/repositories/alluxio/core/server/master/src/main/java/alluxio/master/file/DefaultFileSystemMaster.java
/Users/giovanni/Documents/research/correct_behavior/repositories/alluxio/core/server/master/src/main/java/alluxio/master/AlluxioSecondaryMaster.java
/Users/giovanni/Documents/research/correct_behavior/repositories/alluxio/core/server/master/src/main/java/alluxio/master/file/async/DefaultAsyncPersistHandler.java
/Users/giovanni/Documents/research/correct_behavior/repositories/alluxio/core/server/master/src/main/java/alluxio/web/WebInterfaceDownloadServlet.java
/Users/giovanni/Documents/research/correct_behavior/repositories/alluxio/core/server/master/src/main/java/alluxio/master/MasterProcess.java
/Users/giovanni/Documents/research/correct_behavior/repositories/alluxio/core/server/master/src/main/java/alluxio/master/lineage/recompute/RecomputePlanner.java
/Users/giovanni/Documents/research/correct_behavior/repositories/alluxio/core/server/master/src/main/java/alluxio/master/file/meta/Inode.java
/Users/giovanni/Documents/research/correct_behavior/repositories/alluxio/core/server/master/src/main/java/alluxio/master/block/BlockContainerIdGenerator.java
/Users/giovanni/Documents/research/correct_behavior/repositories/alluxio/core/server/master/src/main/java/alluxio/master/lineage/recompute/RecomputePlan.java
/Users/giovanni/Documents/research/correct_behavior/repositories/alluxio/core/server/master/src/main/java/alluxio/master/block/DefaultBlockMaster.java
