-------------------------------------------------------------------------------
Test set: alluxio.client.keyvalue.PayloadReaderWriterTest
-------------------------------------------------------------------------------
Tests run: 4, Failures: 0, Errors: 0, Skipped: 0, Time elapsed: 0.268 sec - in alluxio.client.keyvalue.PayloadReaderWriterTest
