-------------------------------------------------------------------------------
Test set: alluxio.client.keyvalue.LinearProbingIndexTest
-------------------------------------------------------------------------------
Tests run: 7, Failures: 0, Errors: 0, Skipped: 0, Time elapsed: 0.345 sec - in alluxio.client.keyvalue.LinearProbingIndexTest
