/Users/giovanni/Documents/research/correct_behavior/repositories/alluxio/core/server/proxy/src/main/java/alluxio/proxy/AlluxioProxyRestServiceHandler.java
/Users/giovanni/Documents/research/correct_behavior/repositories/alluxio/core/server/proxy/src/main/java/alluxio/StreamCache.java
/Users/giovanni/Documents/research/correct_behavior/repositories/alluxio/core/server/proxy/src/main/java/alluxio/proxy/AlluxioProxy.java
/Users/giovanni/Documents/research/correct_behavior/repositories/alluxio/core/server/proxy/src/main/java/alluxio/web/ProxyWebServer.java
/Users/giovanni/Documents/research/correct_behavior/repositories/alluxio/core/server/proxy/src/main/java/alluxio/proxy/ProxyProcess.java
/Users/giovanni/Documents/research/correct_behavior/repositories/alluxio/core/server/proxy/src/main/java/alluxio/proxy/PathsRestServiceHandler.java
/Users/giovanni/Documents/research/correct_behavior/repositories/alluxio/core/server/proxy/src/main/java/alluxio/proxy/StreamsRestServiceHandler.java
/Users/giovanni/Documents/research/correct_behavior/repositories/alluxio/core/server/proxy/src/main/java/alluxio/proxy/AlluxioProxyProcess.java
