/Users/giovanni/Documents/research/correct_behavior/repositories/alluxio/keyvalue/client/src/main/java/alluxio/client/keyvalue/KeyValueSystem.java
/Users/giovanni/Documents/research/correct_behavior/repositories/alluxio/keyvalue/client/src/main/java/alluxio/client/keyvalue/KeyValueStoreWriter.java
/Users/giovanni/Documents/research/correct_behavior/repositories/alluxio/keyvalue/client/src/main/java/alluxio/client/keyvalue/BaseKeyValuePartitionReader.java
/Users/giovanni/Documents/research/correct_behavior/repositories/alluxio/keyvalue/client/src/main/java/alluxio/client/keyvalue/PayloadReader.java
/Users/giovanni/Documents/research/correct_behavior/repositories/alluxio/keyvalue/client/src/main/java/alluxio/client/keyvalue/LinearProbingIndex.java
/Users/giovanni/Documents/research/correct_behavior/repositories/alluxio/keyvalue/client/src/main/java/alluxio/client/keyvalue/KeyValueStoreIterator.java
/Users/giovanni/Documents/research/correct_behavior/repositories/alluxio/keyvalue/client/src/main/java/alluxio/client/keyvalue/KeyValueWorkerClient.java
/Users/giovanni/Documents/research/correct_behavior/repositories/alluxio/keyvalue/client/src/main/java/alluxio/client/keyvalue/PayloadWriter.java
/Users/giovanni/Documents/research/correct_behavior/repositories/alluxio/keyvalue/client/src/main/java/alluxio/client/keyvalue/BasePayloadWriter.java
/Users/giovanni/Documents/research/correct_behavior/repositories/alluxio/keyvalue/client/src/main/java/alluxio/client/keyvalue/BasePayloadReader.java
/Users/giovanni/Documents/research/correct_behavior/repositories/alluxio/keyvalue/client/src/main/java/alluxio/client/keyvalue/Index.java
/Users/giovanni/Documents/research/correct_behavior/repositories/alluxio/keyvalue/client/src/main/java/alluxio/client/keyvalue/KeyValuePartitionWriter.java
/Users/giovanni/Documents/research/correct_behavior/repositories/alluxio/keyvalue/client/src/main/java/alluxio/client/keyvalue/BaseKeyValueSystem.java
/Users/giovanni/Documents/research/correct_behavior/repositories/alluxio/keyvalue/client/src/main/java/alluxio/client/keyvalue/ByteBufferKeyValuePartitionReader.java
/Users/giovanni/Documents/research/correct_behavior/repositories/alluxio/keyvalue/client/src/main/java/alluxio/client/keyvalue/KeyValuePair.java
/Users/giovanni/Documents/research/correct_behavior/repositories/alluxio/keyvalue/client/src/main/java/alluxio/client/keyvalue/KeyValueMasterClient.java
/Users/giovanni/Documents/research/correct_behavior/repositories/alluxio/keyvalue/client/src/main/java/alluxio/client/keyvalue/KeyValuePartitionReader.java
/Users/giovanni/Documents/research/correct_behavior/repositories/alluxio/keyvalue/client/src/main/java/alluxio/client/keyvalue/KeyValueIterable.java
/Users/giovanni/Documents/research/correct_behavior/repositories/alluxio/keyvalue/client/src/main/java/alluxio/client/keyvalue/KeyValueStoreReader.java
/Users/giovanni/Documents/research/correct_behavior/repositories/alluxio/keyvalue/client/src/main/java/alluxio/client/keyvalue/BaseKeyValueStoreReader.java
/Users/giovanni/Documents/research/correct_behavior/repositories/alluxio/keyvalue/client/src/main/java/alluxio/client/keyvalue/BaseKeyValuePartitionWriter.java
/Users/giovanni/Documents/research/correct_behavior/repositories/alluxio/keyvalue/client/src/main/java/alluxio/client/keyvalue/BaseKeyValueStoreWriter.java
/Users/giovanni/Documents/research/correct_behavior/repositories/alluxio/keyvalue/client/src/main/java/alluxio/client/keyvalue/KeyValueIterator.java
