-------------------------------------------------------------------------------
Test set: alluxio.master.journal.ufs.UfsJournalTest
-------------------------------------------------------------------------------
Tests run: 2, Failures: 0, Errors: 0, Skipped: 0, Time elapsed: 0.275 sec - in alluxio.master.journal.ufs.UfsJournalTest
