-------------------------------------------------------------------------------
Test set: alluxio.StorageTierAssocTest
-------------------------------------------------------------------------------
Tests run: 3, Failures: 0, Errors: 0, Skipped: 0, Time elapsed: 0.327 sec - in alluxio.StorageTierAssocTest
