alluxio/client/file/options/ExistsOptions.class
alluxio/client/lineage/LineageMasterClient.class
alluxio/client/lineage/options/GetLineageInfoListOptions.class
alluxio/client/file/options/CloseUfsFileOptions.class
alluxio/client/file/policy/FileWriteLocationPolicy.class
alluxio/client/lineage/DummyFileOutputStream.class
alluxio/client/BoundedStream.class
alluxio/client/block/stream/LocalFilePacketReader$1.class
alluxio/client/file/RetryHandlingFileSystemMasterClient$12.class
alluxio/client/block/BlockMasterClient$Factory.class
alluxio/client/file/options/OpenFileOptions.class
alluxio/client/file/options/CreateUfsFileOptions.class
alluxio/client/file/policy/SpecificHostPolicy.class
alluxio/client/file/options/LoadMetadataOptions.class
alluxio/client/file/options/CompleteFileOptions.class
alluxio/client/lineage/LineageMasterClient$1.class
alluxio/client/lineage/LineageFileOutStream.class
alluxio/client/netty/NettyRPCContext.class
alluxio/client/file/RetryHandlingFileSystemMasterClient$7.class
alluxio/client/block/policy/DeterministicHashPolicy$1.class
alluxio/client/UnderStorageType.class
alluxio/client/block/stream/LocalFilePacketReader.class
alluxio/client/block/stream/LocalFilePacketWriter$1.class
alluxio/client/lineage/LineageMasterClient$4.class
alluxio/client/file/FileOutStream$Metrics.class
alluxio/client/file/options/ListStatusOptions.class
alluxio/client/netty/NettyClient$1.class
alluxio/client/block/policy/BlockLocationPolicy$Factory.class
alluxio/client/file/RetryHandlingFileSystemMasterClient$4.class
alluxio/client/file/FileInStream.class
alluxio/client/block/RetryHandlingBlockMasterClient$4.class
alluxio/client/block/RetryHandlingBlockMasterClient$1.class
alluxio/client/file/RetryHandlingFileSystemMasterClient$14.class
alluxio/client/block/stream/LocalFilePacketWriter$2.class
alluxio/client/file/FileSystem$Factory.class
alluxio/client/file/FileSystemContext$Metrics.class
alluxio/client/file/options/UnmountOptions.class
alluxio/client/block/policy/BlockLocationPolicy.class
alluxio/client/file/UnknownLengthFileInStream.class
alluxio/client/file/options/GetStatusOptions.class
alluxio/client/block/stream/LocalFilePacketReader$Factory.class
alluxio/client/file/options/OutStreamOptions.class
alluxio/client/file/FileSystemUtils$1.class
alluxio/client/block/stream/NettyPacketReader.class
alluxio/client/file/FileSystemContext$1.class
alluxio/client/file/RetryHandlingFileSystemMasterClient$5.class
alluxio/client/file/FileSystemContext$Metrics$1.class
alluxio/client/block/BlockMasterClient.class
alluxio/client/lineage/AlluxioLineage.class
alluxio/client/block/options/LockBlockOptions.class
alluxio/client/netty/NettyRPC$RPCHandler.class
alluxio/client/block/stream/NettyPacketWriter$PacketWriteHandler.class
alluxio/client/file/options/CancelUfsFileOptions.class
alluxio/client/file/options/CreateDirectoryOptions.class
alluxio/client/netty/NettyRPC.class
alluxio/client/file/RetryHandlingFileSystemMasterClient$13.class
alluxio/client/ReadType.class
alluxio/client/lineage/AbstractLineageClient.class
alluxio/client/file/options/MountOptions.class
alluxio/client/block/policy/DeterministicHashPolicy.class
alluxio/client/file/BaseFileSystem.class
alluxio/client/block/stream/BlockOutStream.class
alluxio/client/file/options/FreeOptions.class
alluxio/client/file/RetryHandlingFileSystemMasterClient$6.class
alluxio/client/block/stream/NettyPacketReader$1.class
alluxio/client/block/stream/LocalFilePacketWriter.class
alluxio/client/block/stream/NettyPacketWriter$WriteListener.class
alluxio/client/file/FileSystemMasterClient.class
alluxio/client/block/AlluxioBlockStore.class
alluxio/client/netty/NettyRPC$1.class
alluxio/client/block/stream/UnderFileSystemFileOutStream.class
alluxio/client/MetaMasterClient.class
alluxio/client/file/RetryHandlingFileSystemMasterClient$3.class
alluxio/client/netty/IdleWriteHandler.class
alluxio/client/RetryHandlingMetaMasterClient.class
alluxio/client/block/stream/NettyPacketReader$PacketReadHandler.class
alluxio/client/file/FileSystemUtils.class
alluxio/client/block/BlockWorkerInfo.class
alluxio/client/lineage/LineageMasterClient$5.class
alluxio/client/lineage/LineageMasterClient$2.class
alluxio/client/file/FileSystemMasterClientPool.class
alluxio/client/file/FileOutStream.class
alluxio/client/lineage/options/DeleteLineageOptions.class
alluxio/client/block/stream/BlockInStream.class
alluxio/client/block/stream/PacketReader$Factory.class
alluxio/client/AlluxioStorageType.class
alluxio/client/file/policy/RoundRobinPolicy.class
alluxio/client/file/options/CreateFileOptions.class
alluxio/client/file/options/OpenUfsFileOptions.class
alluxio/client/file/RetryHandlingFileSystemMasterClient$11.class
alluxio/client/file/FileSystemContext$2.class
alluxio/client/file/options/DeleteOptions.class
alluxio/client/file/policy/MostAvailableFirstPolicy.class
alluxio/client/file/policy/LocalFirstAvoidEvictionPolicy.class
alluxio/client/file/RetryHandlingFileSystemMasterClient.class
alluxio/client/block/policy/options/CreateOptions.class
alluxio/client/RetryHandlingMetaMasterClient$1.class
alluxio/client/block/policy/options/GetWorkerOptions.class
alluxio/client/lineage/LineageMasterClientPool.class
alluxio/client/Locatable.class
alluxio/client/PositionedReadable.class
alluxio/client/block/stream/PacketReader.class
alluxio/client/file/options/SetAttributeOptions.class
alluxio/client/file/RetryHandlingFileSystemMasterClient$8.class
alluxio/client/lineage/LineageContext.class
alluxio/client/lineage/LineageFileSystem.class
alluxio/client/file/RetryHandlingFileSystemMasterClient$1.class
alluxio/client/file/FileSystemMasterClient$Factory.class
alluxio/client/block/stream/NettyPacketReader$Factory.class
alluxio/client/block/RetryHandlingBlockMasterClient$3.class
alluxio/client/file/options/InStreamOptions.class
alluxio/client/netty/NettyClient.class
alluxio/client/file/FileSystem.class
alluxio/client/AbstractOutStream.class
alluxio/client/block/stream/PacketWriter.class
alluxio/client/file/RetryHandlingFileSystemMasterClient$10.class
alluxio/client/block/stream/NettyPacketWriter$2.class
alluxio/client/file/options/CompleteUfsFileOptions.class
alluxio/client/file/RetryHandlingFileSystemMasterClient$9.class
alluxio/client/block/RetryHandlingBlockMasterClient.class
alluxio/client/block/RetryHandlingBlockMasterClient$2.class
alluxio/client/file/RetryHandlingFileSystemMasterClient$15.class
alluxio/client/file/policy/LocalFirstPolicy.class
alluxio/client/lineage/options/CreateLineageOptions.class
alluxio/client/file/FileSystemContext.class
alluxio/client/file/options/RenameOptions.class
alluxio/client/file/options/CheckConsistencyOptions.class
alluxio/client/file/RetryHandlingFileSystemMasterClient$2.class
alluxio/client/block/stream/NettyPacketWriter$1.class
alluxio/client/Cancelable.class
alluxio/client/WriteType.class
alluxio/client/lineage/LineageMasterClient$3.class
alluxio/client/lineage/LineageClient.class
alluxio/client/block/BlockMasterClientPool.class
alluxio/client/block/stream/NettyPacketWriter.class
