/Users/giovanni/Documents/research/correct_behavior/repositories/alluxio/core/server/common/src/main/java/alluxio/master/journal/ufs/UfsJournal.java
/Users/giovanni/Documents/research/correct_behavior/repositories/alluxio/core/server/common/src/main/java/alluxio/master/journal/AsyncJournalWriter.java
/Users/giovanni/Documents/research/correct_behavior/repositories/alluxio/core/server/common/src/main/java/alluxio/master/journal/JournalFileParser.java
/Users/giovanni/Documents/research/correct_behavior/repositories/alluxio/core/server/common/src/main/java/alluxio/worker/AbstractWorker.java
/Users/giovanni/Documents/research/correct_behavior/repositories/alluxio/core/server/common/src/main/java/alluxio/master/Master.java
/Users/giovanni/Documents/research/correct_behavior/repositories/alluxio/core/server/common/src/main/java/alluxio/master/journalv0/JournalInputStream.java
/Users/giovanni/Documents/research/correct_behavior/repositories/alluxio/core/server/common/src/main/java/alluxio/master/journalv0/ProtoBufJournalFormatter.java
/Users/giovanni/Documents/research/correct_behavior/repositories/alluxio/core/server/common/src/main/java/alluxio/master/file/meta/PersistenceState.java
/Users/giovanni/Documents/research/correct_behavior/repositories/alluxio/core/server/common/src/main/java/alluxio/web/WebInterfaceHeaderServlet.java
/Users/giovanni/Documents/research/correct_behavior/repositories/alluxio/core/server/common/src/main/java/alluxio/master/journal/NoopJournalContext.java
/Users/giovanni/Documents/research/correct_behavior/repositories/alluxio/core/server/common/src/main/java/alluxio/master/journalv0/JournalCheckpointStreamable.java
/Users/giovanni/Documents/research/correct_behavior/repositories/alluxio/core/server/common/src/main/java/alluxio/master/MasterFactory.java
/Users/giovanni/Documents/research/correct_behavior/repositories/alluxio/core/server/common/src/main/java/alluxio/master/journalv0/ufs/UfsCheckpointManager.java
/Users/giovanni/Documents/research/correct_behavior/repositories/alluxio/core/server/common/src/main/java/alluxio/Server.java
/Users/giovanni/Documents/research/correct_behavior/repositories/alluxio/core/server/common/src/main/java/alluxio/master/AbstractMaster.java
/Users/giovanni/Documents/research/correct_behavior/repositories/alluxio/core/server/common/src/main/java/alluxio/worker/WorkerRegistry.java
/Users/giovanni/Documents/research/correct_behavior/repositories/alluxio/core/server/common/src/main/java/alluxio/web/UIFileBlockInfo.java
/Users/giovanni/Documents/research/correct_behavior/repositories/alluxio/core/server/common/src/main/java/alluxio/master/journalv0/JournalEntryRepresentable.java
/Users/giovanni/Documents/research/correct_behavior/repositories/alluxio/core/server/common/src/main/java/alluxio/master/journalv0/AsyncJournalWriter.java
/Users/giovanni/Documents/research/correct_behavior/repositories/alluxio/core/server/common/src/main/java/alluxio/worker/Worker.java
/Users/giovanni/Documents/research/correct_behavior/repositories/alluxio/core/server/common/src/main/java/alluxio/ServiceUtils.java
/Users/giovanni/Documents/research/correct_behavior/repositories/alluxio/core/server/common/src/main/java/alluxio/master/journal/JournalWriter.java
/Users/giovanni/Documents/research/correct_behavior/repositories/alluxio/core/server/common/src/main/java/alluxio/master/journal/ufs/UfsJournalReader.java
/Users/giovanni/Documents/research/correct_behavior/repositories/alluxio/core/server/common/src/main/java/alluxio/master/journalv0/Journal.java
/Users/giovanni/Documents/research/correct_behavior/repositories/alluxio/core/server/common/src/main/java/alluxio/master/journalv0/JournalOutputStream.java
/Users/giovanni/Documents/research/correct_behavior/repositories/alluxio/core/server/common/src/main/java/alluxio/master/journalv0/JournalReader.java
/Users/giovanni/Documents/research/correct_behavior/repositories/alluxio/core/server/common/src/main/java/alluxio/RpcUtils.java
/Users/giovanni/Documents/research/correct_behavior/repositories/alluxio/core/server/common/src/main/java/alluxio/cli/Format.java
/Users/giovanni/Documents/research/correct_behavior/repositories/alluxio/core/server/common/src/main/java/alluxio/master/journal/ufs/UfsJournalLogWriter.java
/Users/giovanni/Documents/research/correct_behavior/repositories/alluxio/core/server/common/src/main/java/alluxio/master/journalv0/JournalFormatter.java
/Users/giovanni/Documents/research/correct_behavior/repositories/alluxio/core/server/common/src/main/java/alluxio/Process.java
/Users/giovanni/Documents/research/correct_behavior/repositories/alluxio/core/server/common/src/main/java/alluxio/master/journal/JournalUpgrader.java
/Users/giovanni/Documents/research/correct_behavior/repositories/alluxio/core/server/common/src/main/java/alluxio/master/journal/JournalFactory.java
/Users/giovanni/Documents/research/correct_behavior/repositories/alluxio/core/server/common/src/main/java/alluxio/StorageTierAssoc.java
/Users/giovanni/Documents/research/correct_behavior/repositories/alluxio/core/server/common/src/main/java/alluxio/web/WebServer.java
/Users/giovanni/Documents/research/correct_behavior/repositories/alluxio/core/server/common/src/main/java/alluxio/master/journalv0/MutableJournal.java
/Users/giovanni/Documents/research/correct_behavior/repositories/alluxio/core/server/common/src/main/java/alluxio/web/UIFileInfo.java
/Users/giovanni/Documents/research/correct_behavior/repositories/alluxio/core/server/common/src/main/java/alluxio/master/journal/options/JournalReaderOptions.java
/Users/giovanni/Documents/research/correct_behavior/repositories/alluxio/core/server/common/src/main/java/alluxio/WorkerStorageTierAssoc.java
/Users/giovanni/Documents/research/correct_behavior/repositories/alluxio/core/server/common/src/main/java/alluxio/master/journal/ufs/UfsJournalFile.java
/Users/giovanni/Documents/research/correct_behavior/repositories/alluxio/core/server/common/src/main/java/alluxio/master/journal/ufs/UfsJournalFileParser.java
/Users/giovanni/Documents/research/correct_behavior/repositories/alluxio/core/server/common/src/main/java/alluxio/master/journal/Journal.java
/Users/giovanni/Documents/research/correct_behavior/repositories/alluxio/core/server/common/src/main/java/alluxio/master/journal/JournalReader.java
/Users/giovanni/Documents/research/correct_behavior/repositories/alluxio/core/server/common/src/main/java/alluxio/web/WebInterfaceDownloadLocalServlet.java
/Users/giovanni/Documents/research/correct_behavior/repositories/alluxio/core/server/common/src/main/java/alluxio/underfs/AbstractUfsManager.java
/Users/giovanni/Documents/research/correct_behavior/repositories/alluxio/core/server/common/src/main/java/alluxio/master/journal/JournalCheckpointThread.java
/Users/giovanni/Documents/research/correct_behavior/repositories/alluxio/core/server/common/src/main/java/alluxio/web/WebInterfaceAbstractMetricsServlet.java
/Users/giovanni/Documents/research/correct_behavior/repositories/alluxio/core/server/common/src/main/java/alluxio/master/journalv0/ufs/UfsJournalWriter.java
/Users/giovanni/Documents/research/correct_behavior/repositories/alluxio/core/server/common/src/main/java/alluxio/Registry.java
/Users/giovanni/Documents/research/correct_behavior/repositories/alluxio/core/server/common/src/main/java/alluxio/MasterStorageTierAssoc.java
/Users/giovanni/Documents/research/correct_behavior/repositories/alluxio/core/server/common/src/main/java/alluxio/master/journal/JournalEntryIterable.java
/Users/giovanni/Documents/research/correct_behavior/repositories/alluxio/core/server/common/src/main/java/alluxio/master/journalv0/ufs/UfsJournal.java
/Users/giovanni/Documents/research/correct_behavior/repositories/alluxio/core/server/common/src/main/java/alluxio/master/journal/JournalContext.java
/Users/giovanni/Documents/research/correct_behavior/repositories/alluxio/core/server/common/src/main/java/alluxio/master/journalv0/JournalFactory.java
/Users/giovanni/Documents/research/correct_behavior/repositories/alluxio/core/server/common/src/main/java/alluxio/master/journalv0/ufs/UfsJournalReader.java
/Users/giovanni/Documents/research/correct_behavior/repositories/alluxio/core/server/common/src/main/java/alluxio/worker/WorkerFactory.java
/Users/giovanni/Documents/research/correct_behavior/repositories/alluxio/core/server/common/src/main/java/alluxio/underfs/UfsManager.java
/Users/giovanni/Documents/research/correct_behavior/repositories/alluxio/core/server/common/src/main/java/alluxio/master/MasterRegistry.java
/Users/giovanni/Documents/research/correct_behavior/repositories/alluxio/core/server/common/src/main/java/alluxio/master/journal/JournalTool.java
/Users/giovanni/Documents/research/correct_behavior/repositories/alluxio/core/server/common/src/main/java/alluxio/web/WebUtils.java
/Users/giovanni/Documents/research/correct_behavior/repositories/alluxio/core/server/common/src/main/java/alluxio/master/journal/JournalEntryRepresentable.java
/Users/giovanni/Documents/research/correct_behavior/repositories/alluxio/core/server/common/src/main/java/alluxio/web/WebInterfaceBrowseLogsServlet.java
/Users/giovanni/Documents/research/correct_behavior/repositories/alluxio/core/server/common/src/main/java/alluxio/master/journal/ufs/UfsJournalSnapshot.java
/Users/giovanni/Documents/research/correct_behavior/repositories/alluxio/core/server/common/src/main/java/alluxio/master/journal/ufs/UfsJournalCheckpointWriter.java
/Users/giovanni/Documents/research/correct_behavior/repositories/alluxio/core/server/common/src/main/java/alluxio/metrics/sink/MetricsServlet.java
/Users/giovanni/Documents/research/correct_behavior/repositories/alluxio/core/server/common/src/main/java/alluxio/master/journalv0/JournalTool.java
/Users/giovanni/Documents/research/correct_behavior/repositories/alluxio/core/server/common/src/main/java/alluxio/ProcessUtils.java
/Users/giovanni/Documents/research/correct_behavior/repositories/alluxio/core/server/common/src/main/java/alluxio/master/journal/options/JournalWriterOptions.java
/Users/giovanni/Documents/research/correct_behavior/repositories/alluxio/core/server/common/src/main/java/alluxio/RestUtils.java
/Users/giovanni/Documents/research/correct_behavior/repositories/alluxio/core/server/common/src/main/java/alluxio/master/journalv0/ufs/UfsMutableJournal.java
/Users/giovanni/Documents/research/correct_behavior/repositories/alluxio/core/server/common/src/main/java/alluxio/master/journal/ufs/UfsJournalGarbageCollector.java
/Users/giovanni/Documents/research/correct_behavior/repositories/alluxio/core/server/common/src/main/java/alluxio/master/journalv0/JournalWriter.java
