-------------------------------------------------------------------------------
Test set: alluxio.hadoop.HadoopUtilsTest
-------------------------------------------------------------------------------
Tests run: 4, Failures: 0, Errors: 0, Skipped: 0, Time elapsed: 0.303 sec - in alluxio.hadoop.HadoopUtilsTest
