-------------------------------------------------------------------------------
Test set: alluxio.hadoop.AbstractFileSystemTest
-------------------------------------------------------------------------------
Tests run: 12, Failures: 0, Errors: 0, Skipped: 0, Time elapsed: 4.206 sec - in alluxio.hadoop.AbstractFileSystemTest
