/Users/giovanni/Documents/research/correct_behavior/repositories/alluxio/underfs/gcs/src/main/java/alluxio/underfs/gcs/GCSUnderFileSystemFactory.java
/Users/giovanni/Documents/research/correct_behavior/repositories/alluxio/underfs/gcs/src/main/java/alluxio/underfs/gcs/GCSUtils.java
/Users/giovanni/Documents/research/correct_behavior/repositories/alluxio/underfs/gcs/src/main/java/alluxio/underfs/gcs/GCSOutputStream.java
/Users/giovanni/Documents/research/correct_behavior/repositories/alluxio/underfs/gcs/src/main/java/alluxio/underfs/gcs/GCSUnderFileSystem.java
/Users/giovanni/Documents/research/correct_behavior/repositories/alluxio/underfs/gcs/src/main/java/alluxio/underfs/gcs/GCSInputStream.java
