alluxio/underfs/hdfs/HdfsUnderFileOutputStream.class
alluxio/underfs/hdfs/HdfsUnderFileSystem$1.class
alluxio/underfs/hdfs/HdfsUnderFileSystemFactory.class
alluxio/underfs/hdfs/HdfsUnderFileSystem.class
