-------------------------------------------------------------------------------
Test set: alluxio.security.authentication.CustomAuthenticationProviderTest
-------------------------------------------------------------------------------
Tests run: 3, Failures: 0, Errors: 0, Skipped: 0, Time elapsed: 0.202 sec - in alluxio.security.authentication.CustomAuthenticationProviderTest
