-------------------------------------------------------------------------------
Test set: alluxio.ConfigurationTest
-------------------------------------------------------------------------------
Tests run: 59, Failures: 0, Errors: 0, Skipped: 0, Time elapsed: 0.469 sec - in alluxio.ConfigurationTest
