-------------------------------------------------------------------------------
Test set: alluxio.underfs.options.FileLocationOptionsTest
-------------------------------------------------------------------------------
Tests run: 3, Failures: 0, Errors: 0, Skipped: 0, Time elapsed: 0.73 sec - in alluxio.underfs.options.FileLocationOptionsTest
