-------------------------------------------------------------------------------
Test set: alluxio.ConfigurationRuleTest
-------------------------------------------------------------------------------
Tests run: 2, Failures: 0, Errors: 0, Skipped: 0, Time elapsed: 0.235 sec - in alluxio.ConfigurationRuleTest
