-------------------------------------------------------------------------------
Test set: alluxio.underfs.UnderFileSystemConfigurationTest
-------------------------------------------------------------------------------
Tests run: 4, Failures: 0, Errors: 0, Skipped: 0, Time elapsed: 0.178 sec - in alluxio.underfs.UnderFileSystemConfigurationTest
