-------------------------------------------------------------------------------
Test set: alluxio.UnderFileSystemFactoryRegistryRuleTest
-------------------------------------------------------------------------------
Tests run: 1, Failures: 0, Errors: 0, Skipped: 0, Time elapsed: 0.275 sec - in alluxio.UnderFileSystemFactoryRegistryRuleTest
