-------------------------------------------------------------------------------
Test set: alluxio.util.SecurityUtilsTest
-------------------------------------------------------------------------------
Tests run: 4, Failures: 0, Errors: 0, Skipped: 0, Time elapsed: 0.315 sec - in alluxio.util.SecurityUtilsTest
