-------------------------------------------------------------------------------
Test set: alluxio.retry.CountingRetryTest
-------------------------------------------------------------------------------
Tests run: 1, Failures: 0, Errors: 0, Skipped: 0, Time elapsed: 0.07 sec - in alluxio.retry.CountingRetryTest
