-------------------------------------------------------------------------------
Test set: alluxio.util.ShellUtilsTest
-------------------------------------------------------------------------------
Tests run: 7, Failures: 0, Errors: 0, Skipped: 0, Time elapsed: 0.365 sec - in alluxio.util.ShellUtilsTest
