-------------------------------------------------------------------------------
Test set: alluxio.security.authorization.ModeParserTest
-------------------------------------------------------------------------------
Tests run: 11, Failures: 0, Errors: 0, Skipped: 0, Time elapsed: 0.094 sec - in alluxio.security.authorization.ModeParserTest
