-------------------------------------------------------------------------------
Test set: alluxio.heartbeat.HeartbeatContextTest
-------------------------------------------------------------------------------
Tests run: 2, Failures: 0, Errors: 0, Skipped: 0, Time elapsed: 0.094 sec - in alluxio.heartbeat.HeartbeatContextTest
