-------------------------------------------------------------------------------
Test set: alluxio.security.authentication.PlainSaslServerCallbackHandlerTest
-------------------------------------------------------------------------------
Tests run: 3, Failures: 0, Errors: 0, Skipped: 0, Time elapsed: 0.228 sec - in alluxio.security.authentication.PlainSaslServerCallbackHandlerTest
