-------------------------------------------------------------------------------
Test set: alluxio.network.protocol.RPCFileWriteRequestTest
-------------------------------------------------------------------------------
Tests run: 8, Failures: 0, Errors: 0, Skipped: 0, Time elapsed: 0.527 sec - in alluxio.network.protocol.RPCFileWriteRequestTest
