-------------------------------------------------------------------------------
Test set: alluxio.network.protocol.databuffer.DataFileChannelTest
-------------------------------------------------------------------------------
Tests run: 2, Failures: 0, Errors: 0, Skipped: 0, Time elapsed: 0.667 sec - in alluxio.network.protocol.databuffer.DataFileChannelTest
