-------------------------------------------------------------------------------
Test set: alluxio.worker.block.evictor.EvictorContractTest
-------------------------------------------------------------------------------
Tests run: 7, Failures: 0, Errors: 0, Skipped: 0, Time elapsed: 1.16 sec - in alluxio.worker.block.evictor.EvictorContractTest
