-------------------------------------------------------------------------------
Test set: alluxio.worker.block.meta.StorageTierViewTest
-------------------------------------------------------------------------------
Tests run: 5, Failures: 0, Errors: 0, Skipped: 0, Time elapsed: 0.587 sec - in alluxio.worker.block.meta.StorageTierViewTest
