-------------------------------------------------------------------------------
Test set: alluxio.worker.block.BlockMetadataManagerTest
-------------------------------------------------------------------------------
Tests run: 17, Failures: 0, Errors: 0, Skipped: 0, Time elapsed: 1.499 sec - in alluxio.worker.block.BlockMetadataManagerTest
