-------------------------------------------------------------------------------
Test set: alluxio.worker.block.ClientRWLockTest
-------------------------------------------------------------------------------
Tests run: 5, Failures: 0, Errors: 0, Skipped: 0, Time elapsed: 0.411 sec - in alluxio.worker.block.ClientRWLockTest
