-------------------------------------------------------------------------------
Test set: alluxio.worker.block.UnderFileSystemBlockReaderTest
-------------------------------------------------------------------------------
Tests run: 7, Failures: 0, Errors: 0, Skipped: 0, Time elapsed: 2.275 sec - in alluxio.worker.block.UnderFileSystemBlockReaderTest
