-------------------------------------------------------------------------------
Test set: alluxio.worker.block.allocator.AllocatorContractTest
-------------------------------------------------------------------------------
Tests run: 2, Failures: 0, Errors: 0, Skipped: 0, Time elapsed: 1.61 sec - in alluxio.worker.block.allocator.AllocatorContractTest
