-------------------------------------------------------------------------------
Test set: alluxio.network.protocol.databuffer.DataByteBufferTest
-------------------------------------------------------------------------------
Tests run: 3, Failures: 0, Errors: 0, Skipped: 0, Time elapsed: 0.474 sec - in alluxio.network.protocol.databuffer.DataByteBufferTest
