-------------------------------------------------------------------------------
Test set: alluxio.worker.block.meta.StorageDirViewTest
-------------------------------------------------------------------------------
Tests run: 8, Failures: 0, Errors: 0, Skipped: 0, Time elapsed: 0.911 sec - in alluxio.worker.block.meta.StorageDirViewTest
