-------------------------------------------------------------------------------
Test set: alluxio.worker.block.meta.StorageDirTest
-------------------------------------------------------------------------------
Tests run: 26, Failures: 0, Errors: 0, Skipped: 0, Time elapsed: 0.461 sec - in alluxio.worker.block.meta.StorageDirTest
