-------------------------------------------------------------------------------
Test set: alluxio.worker.block.BlockMetadataManagerViewTest
-------------------------------------------------------------------------------
Tests run: 10, Failures: 0, Errors: 0, Skipped: 0, Time elapsed: 1.285 sec - in alluxio.worker.block.BlockMetadataManagerViewTest
