-------------------------------------------------------------------------------
Test set: alluxio.network.protocol.RPCBlockReadRequestTest
-------------------------------------------------------------------------------
Tests run: 6, Failures: 0, Errors: 0, Skipped: 0, Time elapsed: 0.725 sec - in alluxio.network.protocol.RPCBlockReadRequestTest
