/Users/giovanni/Documents/research/correct_behavior/repositories/alluxio/core/server/worker/src/main/java/alluxio/worker/block/allocator/GreedyAllocator.java
/Users/giovanni/Documents/research/correct_behavior/repositories/alluxio/core/server/worker/src/main/java/alluxio/underfs/WorkerUfsManager.java
/Users/giovanni/Documents/research/correct_behavior/repositories/alluxio/core/server/worker/src/main/java/alluxio/worker/netty/DataServerBlockWriteHandler.java
/Users/giovanni/Documents/research/correct_behavior/repositories/alluxio/core/server/worker/src/main/java/alluxio/worker/file/FileSystemWorkerFactory.java
/Users/giovanni/Documents/research/correct_behavior/repositories/alluxio/core/server/worker/src/main/java/alluxio/worker/netty/DataServerBlockReadHandler.java
/Users/giovanni/Documents/research/correct_behavior/repositories/alluxio/core/server/worker/src/main/java/alluxio/worker/netty/DataServerShortCircuitReadHandler.java
/Users/giovanni/Documents/research/correct_behavior/repositories/alluxio/core/server/worker/src/main/java/alluxio/worker/block/evictor/Evictor.java
/Users/giovanni/Documents/research/correct_behavior/repositories/alluxio/core/server/worker/src/main/java/alluxio/worker/WorkerProcess.java
/Users/giovanni/Documents/research/correct_behavior/repositories/alluxio/core/server/worker/src/main/java/alluxio/web/WebInterfaceWorkerMetricsServlet.java
/Users/giovanni/Documents/research/correct_behavior/repositories/alluxio/core/server/worker/src/main/java/alluxio/worker/block/evictor/package-info.java
/Users/giovanni/Documents/research/correct_behavior/repositories/alluxio/core/server/worker/src/main/java/alluxio/worker/block/BlockMetadataManagerView.java
/Users/giovanni/Documents/research/correct_behavior/repositories/alluxio/core/server/worker/src/main/java/alluxio/web/WebInterfaceWorkerGeneralServlet.java
/Users/giovanni/Documents/research/correct_behavior/repositories/alluxio/core/server/worker/src/main/java/alluxio/worker/netty/DataServerHeartbeatHandler.java
/Users/giovanni/Documents/research/correct_behavior/repositories/alluxio/core/server/worker/src/main/java/alluxio/worker/block/SpaceReserver.java
/Users/giovanni/Documents/research/correct_behavior/repositories/alluxio/core/server/worker/src/main/java/alluxio/worker/block/BlockStoreEventListener.java
/Users/giovanni/Documents/research/correct_behavior/repositories/alluxio/core/server/worker/src/main/java/alluxio/worker/package-info.java
/Users/giovanni/Documents/research/correct_behavior/repositories/alluxio/core/server/worker/src/main/java/alluxio/worker/block/meta/StorageDirView.java
/Users/giovanni/Documents/research/correct_behavior/repositories/alluxio/core/server/worker/src/main/java/alluxio/worker/netty/DataServerWriteHandler.java
/Users/giovanni/Documents/research/correct_behavior/repositories/alluxio/core/server/worker/src/main/java/alluxio/SessionInfo.java
/Users/giovanni/Documents/research/correct_behavior/repositories/alluxio/core/server/worker/src/main/java/alluxio/worker/block/meta/StorageDir.java
/Users/giovanni/Documents/research/correct_behavior/repositories/alluxio/core/server/worker/src/main/java/alluxio/worker/block/DefaultBlockWorker.java
/Users/giovanni/Documents/research/correct_behavior/repositories/alluxio/core/server/worker/src/main/java/alluxio/worker/SessionCleaner.java
/Users/giovanni/Documents/research/correct_behavior/repositories/alluxio/core/server/worker/src/main/java/alluxio/worker/block/UnderFileSystemBlockStore.java
/Users/giovanni/Documents/research/correct_behavior/repositories/alluxio/core/server/worker/src/main/java/alluxio/worker/block/BlockMasterClient.java
/Users/giovanni/Documents/research/correct_behavior/repositories/alluxio/core/server/worker/src/main/java/alluxio/worker/block/BlockMetricsReporter.java
/Users/giovanni/Documents/research/correct_behavior/repositories/alluxio/core/server/worker/src/main/java/alluxio/worker/block/TieredBlockStore.java
/Users/giovanni/Documents/research/correct_behavior/repositories/alluxio/core/server/worker/src/main/java/alluxio/worker/AlluxioWorkerRestServiceHandler.java
/Users/giovanni/Documents/research/correct_behavior/repositories/alluxio/core/server/worker/src/main/java/alluxio/web/WebInterfaceWorkerBlockInfoServlet.java
/Users/giovanni/Documents/research/correct_behavior/repositories/alluxio/core/server/worker/src/main/java/alluxio/worker/AlluxioWorkerProcess.java
/Users/giovanni/Documents/research/correct_behavior/repositories/alluxio/core/server/worker/src/main/java/alluxio/worker/netty/DataServerUfsFileWriteHandler.java
/Users/giovanni/Documents/research/correct_behavior/repositories/alluxio/core/server/worker/src/main/java/alluxio/worker/block/BlockStore.java
/Users/giovanni/Documents/research/correct_behavior/repositories/alluxio/core/server/worker/src/main/java/alluxio/worker/block/meta/BlockMeta.java
/Users/giovanni/Documents/research/correct_behavior/repositories/alluxio/core/server/worker/src/main/java/alluxio/worker/netty/DataServerReadHandler.java
/Users/giovanni/Documents/research/correct_behavior/repositories/alluxio/core/server/worker/src/main/java/alluxio/worker/block/BlockWorker.java
/Users/giovanni/Documents/research/correct_behavior/repositories/alluxio/core/server/worker/src/main/java/alluxio/worker/block/BlockWorkerFactory.java
/Users/giovanni/Documents/research/correct_behavior/repositories/alluxio/core/server/worker/src/main/java/alluxio/worker/block/evictor/AbstractEvictor.java
/Users/giovanni/Documents/research/correct_behavior/repositories/alluxio/core/server/worker/src/main/java/alluxio/worker/file/FileSystemWorkerClientServiceHandler.java
/Users/giovanni/Documents/research/correct_behavior/repositories/alluxio/core/server/worker/src/main/java/alluxio/worker/netty/NettyDataServer.java
/Users/giovanni/Documents/research/correct_behavior/repositories/alluxio/core/server/worker/src/main/java/alluxio/worker/file/FileWorkerMasterSyncExecutor.java
/Users/giovanni/Documents/research/correct_behavior/repositories/alluxio/core/server/worker/src/main/java/alluxio/worker/netty/DataServerUnsupportedMessageHandler.java
/Users/giovanni/Documents/research/correct_behavior/repositories/alluxio/core/server/worker/src/main/java/alluxio/worker/block/ClientRWLock.java
/Users/giovanni/Documents/research/correct_behavior/repositories/alluxio/core/server/worker/src/main/java/alluxio/worker/file/FileSystemMasterClient.java
/Users/giovanni/Documents/research/correct_behavior/repositories/alluxio/core/server/worker/src/main/java/alluxio/worker/block/evictor/LRUEvictor.java
/Users/giovanni/Documents/research/correct_behavior/repositories/alluxio/core/server/worker/src/main/java/alluxio/worker/netty/FileTransferType.java
/Users/giovanni/Documents/research/correct_behavior/repositories/alluxio/core/server/worker/src/main/java/alluxio/worker/netty/IdleReadHandler.java
/Users/giovanni/Documents/research/correct_behavior/repositories/alluxio/core/server/worker/src/main/java/alluxio/worker/block/PinListSync.java
/Users/giovanni/Documents/research/correct_behavior/repositories/alluxio/core/server/worker/src/main/java/alluxio/worker/block/UnderFileSystemBlockReader.java
/Users/giovanni/Documents/research/correct_behavior/repositories/alluxio/core/server/worker/src/main/java/alluxio/worker/block/allocator/RoundRobinAllocator.java
/Users/giovanni/Documents/research/correct_behavior/repositories/alluxio/core/server/worker/src/main/java/alluxio/worker/block/meta/TempBlockMeta.java
/Users/giovanni/Documents/research/correct_behavior/repositories/alluxio/core/server/worker/src/main/java/alluxio/worker/block/BlockStoreLocation.java
/Users/giovanni/Documents/research/correct_behavior/repositories/alluxio/core/server/worker/src/main/java/alluxio/worker/AlluxioWorker.java
/Users/giovanni/Documents/research/correct_behavior/repositories/alluxio/core/server/worker/src/main/java/alluxio/worker/block/meta/UnderFileSystemBlockMeta.java
/Users/giovanni/Documents/research/correct_behavior/repositories/alluxio/core/server/worker/src/main/java/alluxio/worker/netty/DataServerShortCircuitWriteHandler.java
/Users/giovanni/Documents/research/correct_behavior/repositories/alluxio/core/server/worker/src/main/java/alluxio/worker/block/evictor/EvictionDirCandidates.java
/Users/giovanni/Documents/research/correct_behavior/repositories/alluxio/core/server/worker/src/main/java/alluxio/worker/file/FileSystemWorker.java
/Users/giovanni/Documents/research/correct_behavior/repositories/alluxio/core/server/worker/src/main/java/alluxio/worker/block/BlockMasterSync.java
/Users/giovanni/Documents/research/correct_behavior/repositories/alluxio/core/server/worker/src/main/java/alluxio/worker/file/FileDataManager.java
/Users/giovanni/Documents/research/correct_behavior/repositories/alluxio/core/server/worker/src/main/java/alluxio/worker/block/allocator/Allocator.java
/Users/giovanni/Documents/research/correct_behavior/repositories/alluxio/core/server/worker/src/main/java/alluxio/worker/netty/NettyExecutors.java
/Users/giovanni/Documents/research/correct_behavior/repositories/alluxio/core/server/worker/src/main/java/alluxio/worker/block/BlockMetadataManager.java
/Users/giovanni/Documents/research/correct_behavior/repositories/alluxio/core/server/worker/src/main/java/alluxio/worker/block/evictor/PartialLRUEvictor.java
/Users/giovanni/Documents/research/correct_behavior/repositories/alluxio/core/server/worker/src/main/java/alluxio/worker/block/meta/AbstractBlockMeta.java
/Users/giovanni/Documents/research/correct_behavior/repositories/alluxio/core/server/worker/src/main/java/alluxio/worker/block/BlockMasterClientPool.java
/Users/giovanni/Documents/research/correct_behavior/repositories/alluxio/core/server/worker/src/main/java/alluxio/worker/block/meta/StorageTierView.java
/Users/giovanni/Documents/research/correct_behavior/repositories/alluxio/core/server/worker/src/main/java/alluxio/worker/block/evictor/LRFUEvictor.java
/Users/giovanni/Documents/research/correct_behavior/repositories/alluxio/core/server/worker/src/main/java/alluxio/worker/block/BlockLockType.java
/Users/giovanni/Documents/research/correct_behavior/repositories/alluxio/core/server/worker/src/main/java/alluxio/worker/file/DefaultFileSystemWorker.java
/Users/giovanni/Documents/research/correct_behavior/repositories/alluxio/core/server/worker/src/main/java/alluxio/worker/block/BlockLockManager.java
/Users/giovanni/Documents/research/correct_behavior/repositories/alluxio/core/server/worker/src/main/java/alluxio/worker/DataServer.java
/Users/giovanni/Documents/research/correct_behavior/repositories/alluxio/core/server/worker/src/main/java/alluxio/worker/file/UnderFileSystemUtils.java
/Users/giovanni/Documents/research/correct_behavior/repositories/alluxio/core/server/worker/src/main/java/alluxio/web/WorkerWebServer.java
/Users/giovanni/Documents/research/correct_behavior/repositories/alluxio/core/server/worker/src/main/java/alluxio/worker/block/BlockStoreMeta.java
/Users/giovanni/Documents/research/correct_behavior/repositories/alluxio/core/server/worker/src/main/java/alluxio/worker/block/BlockHeartbeatReport.java
/Users/giovanni/Documents/research/correct_behavior/repositories/alluxio/core/server/worker/src/main/java/alluxio/worker/block/DefaultBlockStoreMeta.java
/Users/giovanni/Documents/research/correct_behavior/repositories/alluxio/core/server/worker/src/main/java/alluxio/Sessions.java
/Users/giovanni/Documents/research/correct_behavior/repositories/alluxio/core/server/worker/src/main/java/alluxio/worker/block/BlockWorkerClientServiceHandler.java
/Users/giovanni/Documents/research/correct_behavior/repositories/alluxio/core/server/worker/src/main/java/alluxio/worker/block/BlockHeartbeatReporter.java
/Users/giovanni/Documents/research/correct_behavior/repositories/alluxio/core/server/worker/src/main/java/alluxio/worker/block/evictor/BlockTransferInfo.java
/Users/giovanni/Documents/research/correct_behavior/repositories/alluxio/core/server/worker/src/main/java/alluxio/worker/netty/PipelineHandler.java
/Users/giovanni/Documents/research/correct_behavior/repositories/alluxio/core/server/worker/src/main/java/alluxio/worker/block/AbstractBlockStoreEventListener.java
/Users/giovanni/Documents/research/correct_behavior/repositories/alluxio/core/server/worker/src/main/java/alluxio/worker/SessionCleanable.java
/Users/giovanni/Documents/research/correct_behavior/repositories/alluxio/core/server/worker/src/main/java/alluxio/worker/block/evictor/GreedyEvictor.java
/Users/giovanni/Documents/research/correct_behavior/repositories/alluxio/core/server/worker/src/main/java/alluxio/worker/block/meta/StorageTier.java
/Users/giovanni/Documents/research/correct_behavior/repositories/alluxio/core/server/worker/src/main/java/alluxio/worker/block/evictor/EvictorUtils.java
/Users/giovanni/Documents/research/correct_behavior/repositories/alluxio/core/server/worker/src/main/java/alluxio/worker/block/allocator/MaxFreeAllocator.java
/Users/giovanni/Documents/research/correct_behavior/repositories/alluxio/core/server/worker/src/main/java/alluxio/worker/block/evictor/EvictionPlan.java
