-------------------------------------------------------------------------------
Test set: alluxio.client.file.policy.RoundRobinPolicyTest
-------------------------------------------------------------------------------
Tests run: 2, Failures: 0, Errors: 0, Skipped: 0, Time elapsed: 0.436 sec - in alluxio.client.file.policy.RoundRobinPolicyTest
