-------------------------------------------------------------------------------
Test set: alluxio.client.file.options.SetAttributeOptionsTest
-------------------------------------------------------------------------------
Tests run: 6, Failures: 0, Errors: 0, Skipped: 0, Time elapsed: 2.248 sec - in alluxio.client.file.options.SetAttributeOptionsTest
