-------------------------------------------------------------------------------
Test set: alluxio.client.file.options.MountOptionsTest
-------------------------------------------------------------------------------
Tests run: 5, Failures: 0, Errors: 0, Skipped: 0, Time elapsed: 0.41 sec - in alluxio.client.file.options.MountOptionsTest
