-------------------------------------------------------------------------------
Test set: alluxio.client.file.options.RenameOptionsTest
-------------------------------------------------------------------------------
Tests run: 2, Failures: 0, Errors: 0, Skipped: 0, Time elapsed: 0.15 sec - in alluxio.client.file.options.RenameOptionsTest
