-------------------------------------------------------------------------------
Test set: alluxio.client.file.options.CompleteFileOptionsTest
-------------------------------------------------------------------------------
Tests run: 4, Failures: 0, Errors: 0, Skipped: 0, Time elapsed: 0.215 sec - in alluxio.client.file.options.CompleteFileOptionsTest
