-------------------------------------------------------------------------------
Test set: alluxio.client.file.options.DeleteOptionsTest
-------------------------------------------------------------------------------
Tests run: 4, Failures: 0, Errors: 0, Skipped: 0, Time elapsed: 0.46 sec - in alluxio.client.file.options.DeleteOptionsTest
