-------------------------------------------------------------------------------
Test set: alluxio.client.file.policy.LocalFirstPolicyTest
-------------------------------------------------------------------------------
Tests run: 4, Failures: 0, Errors: 0, Skipped: 0, Time elapsed: 0.929 sec - in alluxio.client.file.policy.LocalFirstPolicyTest
