-------------------------------------------------------------------------------
Test set: alluxio.StreamCacheTest
-------------------------------------------------------------------------------
Tests run: 4, Failures: 0, Errors: 0, Skipped: 0, Time elapsed: 1.331 sec - in alluxio.StreamCacheTest
