/Users/giovanni/Documents/research/correct_behavior/repositories/alluxio/integration/fuse/src/main/java/alluxio/fuse/AlluxioFuse.java
/Users/giovanni/Documents/research/correct_behavior/repositories/alluxio/integration/fuse/src/main/java/alluxio/fuse/OpenFileEntry.java
/Users/giovanni/Documents/research/correct_behavior/repositories/alluxio/integration/fuse/src/main/java/alluxio/fuse/AlluxioFuseFileSystem.java
/Users/giovanni/Documents/research/correct_behavior/repositories/alluxio/integration/fuse/src/main/java/alluxio/fuse/AlluxioFuseOptions.java
/Users/giovanni/Documents/research/correct_behavior/repositories/alluxio/integration/fuse/src/main/java/alluxio/fuse/AlluxioFuseUtils.java
