-------------------------------------------------------------------------------
Test set: alluxio.underfs.oss.OSSUnderFileSystemTest
-------------------------------------------------------------------------------
Tests run: 3, Failures: 0, Errors: 0, Skipped: 0, Time elapsed: 0.706 sec - in alluxio.underfs.oss.OSSUnderFileSystemTest
