alluxio/RestUtilsTest$2.class
alluxio/web/WebUtilsTest.class
alluxio/master/RegistryTest$ServerA.class
alluxio/RestUtilsTest$3.class
alluxio/master/RegistryTest.class
alluxio/master/journal/ufs/UfsJournalTest.class
alluxio/master/journal/AsyncJournalWriterTest.class
alluxio/master/RegistryTest$ServerD.class
alluxio/RestUtilsTest.class
alluxio/StorageTierAssocTest.class
alluxio/RestUtilsTest$4.class
alluxio/master/RegistryTest$ServerC.class
alluxio/RestUtilsTest$1Obj.class
alluxio/RestUtilsTest$1.class
alluxio/master/RegistryTest$ServerB.class
alluxio/master/RegistryTest$TestServer.class
