alluxio/CommonTestUtilsTest.class
alluxio/heartbeat/HeartbeatThreadTest$DummyHeartbeatTestCallable.class
alluxio/CommonTestUtilsTest$EqualsMissingInstanceCheck.class
alluxio/security/authentication/CustomAuthenticationProviderTest.class
alluxio/util/FormatUtilsTest.class
alluxio/EmbeddedChannels$1.class
alluxio/util/io/BufferUtilsTest$3TestCase.class
alluxio/util/CommonUtilsTest$1TestCase.class
alluxio/heartbeat/ManuallyScheduleHeartbeat$1.class
alluxio/util/io/BufferUtilsTest.class
alluxio/util/network/GetMasterWorkerAddressTest.class
alluxio/security/authentication/SimpleAuthenticationProviderTest.class
alluxio/security/authentication/PlainSaslServerCallbackHandlerTest.class
alluxio/SystemOutRuleTest.class
alluxio/EmbeddedChannels.class
alluxio/CommonTestUtilsTest$BadHashCode.class
alluxio/wire/ThriftUtilsTest.class
alluxio/worker/block/io/LocalFileBlockReaderTest.class
alluxio/ConfigurationRuleTest$1.class
alluxio/util/network/NetworkAddressUtilsTest.class
alluxio/security/authentication/TransportProviderTest$ExactlyMatchAuthenticationProvider.class
alluxio/underfs/options/MkdirsOptionsTest.class
alluxio/CommonTestUtilsTest$MissingField.class
alluxio/underfs/UfsFileStatusTest.class
alluxio/resource/DynamicResourcePoolTest$Resource.class
alluxio/UnderFileSystemFactoryRegistryRule.class
alluxio/util/CommonUtilsTest$2.class
alluxio/security/authentication/PlainSaslServerCallbackHandlerTest$NameMatchAuthenticationProvider.class
alluxio/AuthenticatedUserRuleTest.class
alluxio/SystemPropertyRule.class
alluxio/util/FormatUtilsTest$5TestCase.class
alluxio/collections/IndexedSetTest.class
alluxio/collections/IndexedSetTest$2.class
alluxio/util/network/NetworkAddressUtilsTest$1.class
alluxio/metrics/MetricsConfigTest.class
alluxio/util/io/PathUtilsTest.class
alluxio/CommonTestUtilsTest$HardToInstantiateClass.class
alluxio/EmbeddedNoExceptionChannel.class
alluxio/heartbeat/HeartbeatThreadTest.class
alluxio/security/authentication/CustomAuthenticationProviderTest$MockAuthenticationProvider.class
alluxio/heartbeat/ManuallyScheduleHeartbeat.class
alluxio/wire/JobConfInfoTest.class
alluxio/util/CommonUtilsTest$1.class
alluxio/collections/PairTest.class
alluxio/heartbeat/ManuallyScheduleHeartbeat$Resource.class
alluxio/util/io/BufferUtilsTest$5TestCase.class
alluxio/util/HFSUtilsTest.class
alluxio/underfs/UfsDirectoryStatusTest.class
alluxio/underfs/options/ListOptionsTest.class
alluxio/security/group/IdentityUserGroupsMappingTest.class
alluxio/util/CommonUtilsTest$3TestCase.class
alluxio/underfs/options/DeleteOptionsTest.class
alluxio/util/CommonUtilsTest$TestClassB.class
alluxio/EmbeddedChannels$EmbeddedEmptyCtorChannel$LastInboundHandler.class
alluxio/AbstractResourceRule.class
alluxio/ConfigurationRuleTest.class
alluxio/UnderFileSystemFactoryRegistryRuleTest$1.class
alluxio/worker/block/io/MockBlockWriter$1.class
alluxio/ConfigurationRule$1.class
alluxio/wire/CapacityTest.class
alluxio/security/login/LoginModuleTest.class
alluxio/LoginUserRule.class
alluxio/LoginUserRuleTest.class
alluxio/CommonTestUtils.class
alluxio/underfs/UnderFileSystemConfigurationTest.class
alluxio/wire/AlluxioProxyInfoTest.class
alluxio/underfs/AbstractUnderFileSystemContractTest$LargeDirectoryConfig.class
alluxio/resource/DummyCloseableResource.class
alluxio/util/CommonUtilsTest$TestClassA.class
alluxio/security/LoginUserTest.class
alluxio/resource/DynamicResourcePoolTest.class
alluxio/wire/MountPointInfoTest.class
alluxio/util/CommonUtilsTest$2TestCase.class
alluxio/security/authentication/PlainSaslClientCallbackHandlerTest.class
alluxio/wire/WorkerInfoTest.class
alluxio/AbstractClientTest$TestClient.class
alluxio/AuthenticatedUserRuleTest$1.class
alluxio/worker/block/io/LocalFileBlockWriterTest.class
alluxio/security/group/ShellBasedUnixGroupsMappingTest.class
alluxio/wire/AlluxioWorkerInfoTest.class
alluxio/LoginUserRuleTest$1.class
alluxio/util/WaitForOptionsTest.class
alluxio/AlluxioTestDirectory$1.class
alluxio/util/IdUtilsTest.class
alluxio/collections/IndexedSetTest$1.class
alluxio/wire/FileBlockInfoTest.class
alluxio/underfs/AbstractUnderFileSystemContractTest$ObjectStorePreConfig.class
alluxio/clock/ManualClock.class
alluxio/wire/BlockLocationTest.class
alluxio/wire/WorkerNetAddressTest.class
alluxio/worker/block/io/MockBlockWriter.class
alluxio/collections/DirectedAcyclicGraphTest.class
alluxio/collections/PrefixListTest.class
alluxio/UnderFileSystemFactoryRegistryRuleTest.class
alluxio/wire/FileInfoTest.class
alluxio/resource/LockResourceTest.class
alluxio/ConfigurationTestUtils.class
alluxio/SystemOutRuleTest$1.class
alluxio/security/authentication/PlainSaslServerCallbackHandlerTest$1.class
alluxio/master/block/BlockIdTest.class
alluxio/PropertyKeyTest.class
alluxio/security/authentication/PlainSaslServerTest$MockCallbackHandlerUnauthorized.class
alluxio/worker/block/io/MockBlockReader.class
alluxio/CommonTestUtilsTest$ManyFields.class
alluxio/metrics/MetricsSystemTest.class
alluxio/AbstractResourceRule$1.class
alluxio/EmbeddedChannels$EmbeddedEmptyCtorChannel.class
alluxio/security/authorization/ModeTest.class
alluxio/util/FormatUtilsTest$1TestCase.class
alluxio/security/authorization/ModeParserTest.class
alluxio/wire/CommandLineJobInfoTest.class
alluxio/util/io/BufferUtilsTest$4TestCase.class
alluxio/wire/AlluxioMasterInfoTest.class
alluxio/security/group/GroupMappingServiceTest.class
alluxio/util/io/FileUtilsTest$1ConcurrentCreator.class
alluxio/heartbeat/SleepingTimerTest.class
alluxio/wire/LineageInfoTest.class
alluxio/security/authentication/PlainSaslServerProviderTest.class
alluxio/util/UnderFileSystemUtilsTest.class
alluxio/security/authorization/ModeBitsTest.class
alluxio/resource/ResourcePoolTest.class
alluxio/wire/BlockInfoTest.class
alluxio/util/io/ByteIOUtilsTest.class
alluxio/SystemOutRule.class
alluxio/util/io/BufferUtilsTest$1TestCase.class
alluxio/CommonTestUtilsTest$Basic.class
alluxio/security/LoginUserTestUtils.class
alluxio/util/CommonUtilsTest$4.class
alluxio/util/ShellUtilsTest.class
alluxio/ConfigurationRuleTest$2.class
alluxio/security/authentication/TransportProviderTest$1.class
alluxio/AlluxioTestDirectory.class
alluxio/client/file/URIStatusTest.class
alluxio/ConfigurationTest.class
alluxio/util/SecurityUtilsTest.class
alluxio/AbstractClientTest$1.class
alluxio/retry/ExponentialBackoffRetryTest$MockExponentialBackoffRetry.class
alluxio/resource/DynamicResourcePoolTest$TestPool.class
alluxio/AlluxioURITest.class
alluxio/security/authentication/PlainSaslServerTest$MockCallbackHandler.class
alluxio/security/authentication/PlainSaslServerTest$1.class
alluxio/ConfigurationTest$TestEnum.class
alluxio/heartbeat/HeartbeatThreadTest$1.class
alluxio/retry/TimeoutRetryTest.class
alluxio/util/FormatUtilsTest$2TestCase.class
alluxio/underfs/UnderFileSystemTest.class
alluxio/util/CommonUtilsTest.class
alluxio/security/authentication/TransportProviderTest.class
alluxio/heartbeat/HeartbeatContextTest.class
alluxio/util/FormatUtilsTest$4TestCase.class
alluxio/collections/IndexedSetTest$Pair.class
alluxio/retry/CountingRetryTest.class
alluxio/security/authentication/PlainSaslServerTest.class
alluxio/resource/ResourcePoolTest$TestResourcePool.class
alluxio/heartbeat/HeartbeatThreadTest$DummyHeartbeatExecutor.class
alluxio/AbstractClientTest.class
alluxio/underfs/options/CreateOptionsTest.class
alluxio/retry/ExponentialBackoffRetryTest.class
alluxio/util/io/BufferUtilsTest$2TestCase.class
alluxio/util/CommonUtilsTest$3.class
alluxio/security/UserTest.class
alluxio/resource/DynamicResourcePoolTest$1ReleaseThread.class
alluxio/underfs/options/OpenOptionsTest.class
alluxio/AuthenticatedUserRule.class
alluxio/util/io/FileUtilsTest.class
alluxio/security/GroupMappingServiceTestUtils.class
alluxio/ConfigurationRule.class
alluxio/underfs/AbstractUnderFileSystemContractTest.class
alluxio/util/FormatUtilsTest$3TestCase.class
alluxio/underfs/options/FileLocationOptionsTest.class
