-------------------------------------------------------------------------------
Test set: alluxio.client.RemoteReadIntegrationTest
-------------------------------------------------------------------------------
Tests run: 34, Failures: 0, Errors: 0, Skipped: 0, Time elapsed: 63 sec - in alluxio.client.RemoteReadIntegrationTest
