Exception in thread "Thread-51" java.lang.RuntimeException: java.lang.NullPointerException
	at alluxio.master.file.DefaultFileSystemMaster.deleteFromEntry(DefaultFileSystemMaster.java:1217)
	at alluxio.master.file.DefaultFileSystemMaster.processJournalEntry(DefaultFileSystemMaster.java:421)
	at alluxio.master.journal.JournalCheckpointThread.runInternal(JournalCheckpointThread.java:138)
	at alluxio.master.journal.JournalCheckpointThread.run(JournalCheckpointThread.java:118)
Caused by: java.lang.NullPointerException
	at alluxio.master.file.UfsSyncChecker.getChildrenInUFS(UfsSyncChecker.java:163)
	at alluxio.master.file.UfsSyncChecker.checkDirectory(UfsSyncChecker.java:73)
	at alluxio.master.file.DefaultFileSystemMaster$UfsDeleter.<init>(DefaultFileSystemMaster.java:1373)
	at alluxio.master.file.DefaultFileSystemMaster.deleteInternal(DefaultFileSystemMaster.java:1277)
	at alluxio.master.file.DefaultFileSystemMaster.deleteFromEntry(DefaultFileSystemMaster.java:1212)
	... 3 more
