-------------------------------------------------------------------------------
Test set: alluxio.client.ReadOnlyMountIntegrationTest
-------------------------------------------------------------------------------
Tests run: 10, Failures: 0, Errors: 0, Skipped: 0, Time elapsed: 22.22 sec - in alluxio.client.ReadOnlyMountIntegrationTest
