-------------------------------------------------------------------------------
Test set: alluxio.shell.command.LeaderCommandIntegrationTest
-------------------------------------------------------------------------------
Tests run: 1, Failures: 0, Errors: 0, Skipped: 0, Time elapsed: 13.721 sec - in alluxio.shell.command.LeaderCommandIntegrationTest
