-------------------------------------------------------------------------------
Test set: alluxio.shell.command.CopyToLocalCommandIntegrationTest
-------------------------------------------------------------------------------
Tests run: 9, Failures: 0, Errors: 0, Skipped: 0, Time elapsed: 41.772 sec - in alluxio.shell.command.CopyToLocalCommandIntegrationTest
