-------------------------------------------------------------------------------
Test set: alluxio.security.ClusterInitializationIntegrationTest
-------------------------------------------------------------------------------
Tests run: 3, Failures: 0, Errors: 0, Skipped: 0, Time elapsed: 16.072 sec - in alluxio.security.ClusterInitializationIntegrationTest
