-------------------------------------------------------------------------------
Test set: alluxio.worker.block.meta.SpecificTierWriteIntegrationTest
-------------------------------------------------------------------------------
Tests run: 8, Failures: 0, Errors: 0, Skipped: 0, Time elapsed: 21.822 sec - in alluxio.worker.block.meta.SpecificTierWriteIntegrationTest
