-------------------------------------------------------------------------------
Test set: alluxio.master.block.BlockMasterIntegrationTest
-------------------------------------------------------------------------------
Tests run: 2, Failures: 0, Errors: 0, Skipped: 0, Time elapsed: 9.929 sec - in alluxio.master.block.BlockMasterIntegrationTest
