-------------------------------------------------------------------------------
Test set: alluxio.shell.command.FreeCommandIntegrationTest
-------------------------------------------------------------------------------
Tests run: 8, Failures: 0, Errors: 0, Skipped: 0, Time elapsed: 30.662 sec - in alluxio.shell.command.FreeCommandIntegrationTest
