-------------------------------------------------------------------------------
Test set: alluxio.shell.command.FileInfoCommandIntegrationTest
-------------------------------------------------------------------------------
Tests run: 2, Failures: 0, Errors: 0, Skipped: 0, Time elapsed: 23.278 sec - in alluxio.shell.command.FileInfoCommandIntegrationTest
