-------------------------------------------------------------------------------
Test set: alluxio.shell.command.HelpCommandIntegrationTest
-------------------------------------------------------------------------------
Tests run: 4, Failures: 0, Errors: 0, Skipped: 0, Time elapsed: 19.517 sec - in alluxio.shell.command.HelpCommandIntegrationTest
