-------------------------------------------------------------------------------
Test set: alluxio.shell.command.LoadCommandIntegrationTest
-------------------------------------------------------------------------------
Tests run: 2, Failures: 0, Errors: 0, Skipped: 0, Time elapsed: 14.819 sec - in alluxio.shell.command.LoadCommandIntegrationTest
