-------------------------------------------------------------------------------
Test set: alluxio.underfs.s3.S3InputStreamTest
-------------------------------------------------------------------------------
Tests run: 4, Failures: 0, Errors: 0, Skipped: 0, Time elapsed: 0.637 sec - in alluxio.underfs.s3.S3InputStreamTest
